*** Life<Cell> 1x1 ***

Generation = 0, Population = 1.
0

Generation = 1, Population = 0.
-

Generation = 2, Population = 0.
-

Generation = 3, Population = 0.
-

Generation = 4, Population = 0.
-

Generation = 5, Population = 0.
-

*** Life<Cell> 5x5 ***

Generation = 0, Population = 5.
-----
--0--
-----
00---
0--0-

Generation = 1, Population = 12.
--0--
-0-0-
000--
-100-
1-0-0

Generation = 2, Population = 9.
-----
-1--0
1--0-
0--1-
-010-

Generation = 3, Population = 10.
-0--0
--0--
*-01-
1---0
-1--0

Generation = 4, Population = 12.
0--0-
0-1-0
.--*-
*-0-1
--101

Generation = 5, Population = 9.
10---
1----
.-0.0
.-1-*
11---

Generation = 6, Population = 12.
-10--
*-1-0
.01.1
.-*-.
**--1

Generation = 7, Population = 14.
-*-00
*---1
.1*.*
*1*1.
.*-0-

Generation = 8, Population = 12.
-.-1-
*11--
.-..*
*-.-*
**111

Generation = 9, Population = 13.
1*--0
.-*-1
*1.*.
*-*-*
**---

Generation = 10, Population = 16.
**-11
.1*0*
**..*
.-*1.
**--1

*** Life<Cell> 10x10 ***

Generation = 0, Population = 19.
--0--0--00
------0-0-
----------
--------0-
0--0-00---
-0-00-----
0--0-----0
----------
---0--0---
----------

Generation = 1, Population = 38.
-0-00--0-1
--0-----1-
------0---
0--0-000-0
--0101100-
0--11-0--0
--01----0-
0-----0--0
--0-00-0--
---0--0---

Generation = 2, Population = 46.
0-01100-0-
----0-0---
0-00--1-00
-0-10---0-
-01-1*-110
-00*-01-0-
-01----0-0
-0-00-----
00-011--00
----------

Generation = 3, Population = 51.
--1-*----1
---010-0-0
-01-00*--1
-1----0--0
01---.1*-1
01-.1-*-10
01-100--0-
--0----00-
1---**0011
00-000--00

Generation = 4, Population = 41.
-0-1*--00*
-001--0---
0-*0-1.-0-
----0---0-
-*1-1.*.1-
1*0**0*0--
--1*11----
--------1-
*-0-..-1--
-1-11-----

Generation = 5, Population = 43.
011-*0-1-.
--1*-----0
-0.-0-.011
01--1-00-0
-.-1-.*.*1
*.-..1.1--
0--.*--00-
0--000---0
.0--..0---
--0**0-0--

Generation = 6, Population = 42.
1--1*1--0.
00-.10---1
-1.-11*--*
1-0-*-----
-*1--....-
..-.*-.*10
-1-*.10-1-
1-0111-0--
.---..---1
--1**10-0-

Generation = 7, Population = 49.
*-1*.-01-.
--1.*1---*
0**0***01.
--1-*-0--0
-*-1-...*1
.*0**-***1
--1..-1-*-
-01*--0--0
.---..01--
-1***-1---

Generation = 8, Population = 47.
.--**-1*0.
---..-0--.
1..-...-**
11*-.01-01
0*-*1.*..*
.*1.*-*..-
-1-.*1-0.0
11**11----
.---*.1*11
0***.-*---

Generation = 9, Population = 44.
.-1..--*1.
0--..11--*
*..-.**0**
***-*1---*
-.-.-.*.**
..*..1***-
--1..-1-.-
***.----1-
.--0..-*-*
1***.1*-00

Generation = 10, Population = 46.
.1-..1-**.
101..--01*
*..-...-.*
**.-*-100.
0.-*1....*
.....*..*-
0--*.-*-*-
.***--0---
.-01*.-*-*
*******01-

*** Life<Cell> 15x15 ***

Generation = 0, Population = 23.
--------0------
---------------
----0----0-----
---------------
---------------
--0-----------0
--0-----0---0-0
----00---0-----
---------------
-----------0--0
---------------
0--0-0--0------
0-----0--------
------------0-0
-0-------------

Generation = 1, Population = 70.
-------0-0-----
----0---00-----
---0-0--0-0----
----0----0-----
--0-----------0
-010----0---001
-01000-0---0--1
--00110---0-0-0
----00---0-0--0
----------0-00-
0--0-0--0--0--0
100----0-0-----
10-0---00---0-0
00----0----0---
0-0---------0-0

Generation = 2, Population = 67.
----0-0-010----
---------------
--0---001--0---
--0-----------0
--1-0---00--0-1
0----0---0--1-*
0---1-0-----0--
---1--1--------
--0-----0---0-1
0--00---0---110
1-----0--------
*110-001--000--
*10-0---1------
1--0-0--0-0-0--
10-0--0--------

Generation = 3, Population = 121.
---0----1-10---
--0-0--0-000---
-010-01-*00-0-0
-0-00-00-0-0001
00*----01-001--
101-0----100--.
10---010-0-0101
0----1*00-----0
00-00-0010-010*
10-1100010-0---
--0-0-1-0-00-00
.**1011*-01-10-
.*---00-*0-0---
-0-10--01----0-
-1-10--00-0-0--

Generation = 4, Population = 59.
---------1--0--
--1-----------0
0-*--1--.---101
----10---1-----
--.-----*-----1
*-----0---1110.
*-----*-010----
-0-1--.--0---0-
1-----1-------*
--0----1--0----
101-----1---0-1
.*.-1*-.----*--
**--0---.-0----
1-------*-00--0
1*---00--------

Generation = 5, Population = 104.
--0-----1-10-00
00*0-0---0----1
--.0-*1-.0-0*--
0-00*-0---0-00-
0-.-0000.-001--
.0---010-----1.
*--0-0.-1*--1--
0---1-.--1--0--
--00-0---00---.
--11-----0-01--
*1-000---0001--
...1-*1.0-10.00
**001---.01-0-0
-0--0000.--100-
-*0-01100-00--0

Generation = 6, Population = 104.
0-1--0-0-1*1-1-
1-.--1---1--0-*
-0.-0.-0.101*-1
1-11.-----1-111
1-*--1--.0---0-
*-10-1*--1111-.
*-1-11.-**00*--
1001-1.----010-
10--0-1-111---.
1--*----1----1-
.*11------1---1
...--.*.--*-.1-
**-1-0-0*1--1-1
--0-111-.00-110
1*1--**11-1----

Generation = 7, Population = 119.
1--001----**0--
*-.--*0-0-0010*
0-*--.1-*-1-.0-
*0-**0-0-1*0-*-
--.00*--.10011-
*-*10**0-***--.
*0--**.0*.1-.--
*11*-**---0-*10
*--0-0----*-1-.
*0-*--01*---1--
.*--0-1-10*0-0-
*..--.**0-*0.-0
.*0-11-1*-10*-*
-011*--0.------
**-1-..-*0*0000

Generation = 8, Population = 97.
*011----11*.--0
*0.0-.--1-11*1*
-0*-0.*0*1-1.--
*11..-0-0-.-1*1
-0.1-.--.*----1
*0**-..-0...-1.
.-10...-*.--*01
.*-*1..-01--*-1
.0---11011.---.
*--*----*---*--
.*1-----*-.-1--
*.*--...10.1.-1
*.-1-*0*.--1*-.
-1**.-11.0---1-
**1*-..-*-*---1

Generation = 9, Population = 107.
*1--0--0--*.0-1
.1.1-.0----**-*
01.0-**-.*1*.--
*--..01011*-**-
1-.*0.0-**0-11*
*1..0..01*..-*.
*0-1...0*.-0*1-
.*1****-1-00*1*
*10--*----.---.
*0-.100-.--0.1-
*.-----0*-.-*01
*.*--.*.-1**.1-
*.0*-*1..-1-*-.
1-...---.--1---
*.**0..-*0.0---

Generation = 10, Population = 85.
*-1--1--11..1-*
.-.*-.1--11.*-.
--.1-..-..*..01
*--*.---*-.0..-
--.*-.1-..----*
.-..1**--...1..
.11*...-..--.*-
..*..**0*-11.**
.---0.1-1-*-1-*
.--.*11-.-0-.*-
*.1-0011*-.0.-*
*.*--**.-**..*-
*.-*-*-..-*-*-.
-1...11-.0-*---
.*.*1..1.1*10--

*** Life<Cell> 10x10 ***

Generation = 0, Population = 41.
--0-0-0-00
-----00---
----0-00--
----0--00-
0-0--0--0-
00-0---0-0
-00-00-000
0---00--0-
0--0---0--
0-00-0--0-

Generation = 1, Population = 44.
-0---01-11
--0-011-00
---010----
0-001----0
10----001-
------01-1
0-10----1-
1-0---001-
-0-1--0-0-
1-1---0--0

Generation = 2, Population = 43.
0---------
---0------
0-0-----0-
1011--00--
-1-000-1*0
-000-0----
1--10--0*-
*010-0--*0
0---00-01-
-0---010--

Generation = 3, Population = 44.
-0-0------
----0---0-
1010--0--0
-1*---1-00
---1--0-*1
---1-10--1
*01*1001*-
*----100.1
100-110---
--1-------

Generation = 4, Population = 47.
0-------1-
0-00-110--
*1*1-01001
--.1-0---1
-1-*0---.*
00--0-1-0*
*--*---*.0
.0-00*--.-
----**---0
1-*0001---

Generation = 5, Population = 53.
1000-01--1
-0----*-00
*-.*-1*1--
1-.-11-0--
-*-*--0-.*
--011--11*
*01*10-*.1
.---1*00*-
1001..--1-
--.-11*0-0

Generation = 6, Population = 45.
*1-1-1-0-*
01---1.01-
*-..1-.--1
*-*1*--101
-*0.0--1.*
00-------*
.-*.--0..*
.--0-.-1.-
*--*..-0*-
10*-*-*10-

Generation = 7, Population = 53.
*----*-11.
1-00-*.-*0
*-*.*-*-0*
*1*-*11--*
1.-.100*.*
1-0-1-111*
.-*.-0-.*.
.--11.-*.1
*--**.-1.0
--*0.-**-0

Generation = 8, Population = 43.
.1010.-*-*
---10*.-.-
*1...-*--.
*-*-.**--*
-.-.*1-..*
*-1-*--***
.0*.1--...
.----*0*.*
.0-..*--.-
10*-*1**-1

Generation = 9, Population = 49.
.*-*-*1.-.
1---1**0.0
****.1*1-.
*1.1*.*10.
-.-.*--*.*
.0*-*-1.**
.1*.*-0..*
.-1--*-...
*1-...0-.-
*1*-***.--

Generation = 10, Population = 44.
..-.0.-*-.
*101*..-*-
.....-.*-.
*-.-...-1.
1.0.*10..*
.-*-*-*..*
.-..*01***
*0*1-*0...
*-0**.11.-
***-.**.--

Generation = 11, Population = 39.
.*0.1.1.-.
.---*..0*0
*.**.-.*0.
.1.-.**--.
*.1.*--***
.0.-.-...*
.1...1-.**
*-.--.1...
.-1...**.-
*.*-****--

Generation = 12, Population = 47.
..1***-*1.
.1--***-.1
.****1..-*
*-.1***1-*
*.-..--***
*1*-.1.*..
**...--.**
.-.--**.*.
.1**.....-
.*.-.*.*0-

Generation = 13, Population = 46.
..**..1**.
.*01...-.*
**...*.*0*
*-.-...-1*
*.1*.--..*
.**1.-**..
*.*..-1.**
*-.11..***
.-*.**..*-
.*.0....11

Generation = 14, Population = 40.
.*.*..***.
*.1-*..-.*
*......*1.
*-*1...--.
*.-*.-0*.*
*..-.1**.*
*...*1*..*
.0**-.*...
.-*..*...0
..*-*...-*

Generation = 15, Population = 38.
.***...**.
*.-1..*-.*
*.*.....*.
*-*-..*-1.
*.-**--*..
**.1.-...*
*.****..*.
.1**-.*...
.-..**...1
...-....1.

Generation = 16, Population = 37.
.***...**.
*.1*...-.*
*.**....**
*-*-...1*.
*.-**1-**.
*..-.1..*.
*....*....
.*..1.*...
.1****...-
...-....-.

Generation = 17, Population = 40.
.*.*....*.
*.*.*..0.*
*......*.*
*-*1..*-..
*.-**--..*
**.1.-.**.
**..***...
**..*.*...
.-****...-
..*0*...-.

Generation = 18, Population = 36.
.***....*.
*.**...1.*
*.*...**..
*-*-*..-*.
*.-.*10**.
...*.1***.
...**.*...
*.....*...
.-.......-
..*1.*..-.

Generation = 19, Population = 25.
.*.*....*.
*.....**..
*.*...**..
*-.-*..1*.
.*1..*1..*
...*.-..*.
...**.....
.....*....
.-.......-
...*....-.

Generation = 20, Population = 23.
.......*..
*.*...*.*.
*....*....
*-*1...-*.
.******..*
...*.1....
...**.....
....*.....
.-.......-
........-.

*** Life<Cell> 9x9 ***

Generation = 0, Population = 41.
-----0--0
0--000-0-
00-0-0-0-
0-0--00-0
-00--0---
000-0--0-
-0-00--00
000-000-0
0--00--0-

Generation = 1, Population = 42.
0--0-10--
1-0--1-1-
11010-01-
1-1-0110-
0-10-1-00
1--01-01-
0--11----
-11-1-1-1
1--1-----

Generation = 2, Population = 34.
10----1--
-010-*-*0
*------*0
-0---**1-
-----*-11
-0-1-01--
1---*0-00
0**-*----
------0-0

Generation = 3, Population = 37.
*--0----0
1--1-.0.-
*101---.-
--1-0*.*0
---00.--*
----11*1-
*00-.-011
-*.-*-10-
100-00---

Generation = 4, Population = 43.
.0010-10-
----0.-.0
*-1--00*0
1-*--*.*-
---11.01*
100---.-0
*111*-1-*
0..0*0---
*11--1-0-

Generation = 5, Population = 33.
.1----*1-
10--1.-.1
.-*1---.-
*-*--...0
-01***1**
-1-1--*--
.***.0--.
-..-.--01
*-*--*--0

Generation = 6, Population = 39.
**0-01.*-
*----.0*-
*-**---.-
.0.00**.1
--*.***.*
1----1.-0
.*.**--1.
0..0*-11-
.-.10.0-1

Generation = 7, Population = 40.
**1-1*.*0
*--11*1*1
*1**-0-.0
.-.-1.*.*
0-*.....*
--011*.-1
****.--**
-..1.----
.-.--.10-

Generation = 8, Population = 34.
***1-...-
.01-*.-.*
*-*.-10.-
*0.--*..*
--*.....*
--1*-..--
.*...01**
0*.*.-1-1
.-.1-.*11

Generation = 9, Population = 42.
*..*-...0
.-*1**1..
*-**--1*-
*1*-1***.
0-**.....
---*1.*1-
**.**1*.*
1*..*----
.1**0.*--

Generation = 10, Population = 29.
..**-*..-
.0.-.*-..
*1..01*.0
*-.-**.*.
10.......
-1-.-.**-
**...-*..
-....---1
*-**-*.1-

Generation = 11, Population = 24.
..*.-...-
*1.1..-..
*-..--.*-
.1.0*..*.
--...*.*.
1-1.-.**1
**...1*..
-.*..01--
.-..-..--

Generation = 12, Population = 28.
.**.-...-
***-..-..
*1.*0-..0
.-.1*..**
10****...
*1-.-...*
*.*..-...
1*...--1-
.-..-..--

Generation = 13, Population = 21.
*.*.-...-
...-..-..
*-..-1.*1
.-.*...**
-1...*.**
.-1.1....
..*..-...
-*...-1-1
.1..-..1-

Generation = 14, Population = 25.
....-...-
.*.-..-..
.1..0-**-
.1..*....
1-***.***
.-**-....
.***.-...
1**..0-1-
.*..-..--

Generation = 15, Population = 24.
....-...-
...-..1..
*-*.1-..1
**..*...*
-1..**.*.
.-..-..*.
*...*1...
*..*.---1
***.-..1-

Generation = 16, Population = 29.
....-...-
...-..-..
*1.**1.**
*.*.*..**
-*..*****
.1..-....
....**...
*.***0---
***.-..--

Generation = 17, Population = 31.
....-...-
...1*.-..
*********
*.*......
-******.*
.*..-..*.
.**..*...
*.*..-1--
*.*.0..--

Generation = 18, Population = 25.
....1...-
.*.-..1*.
*....***.
*.......*
-..*****.
*...1..*.
*.*...*..
*.*..--1-
...*-..--

Generation = 19, Population = 24.
....-...-
...-..-*.
**...*..*
........*
-..******
.*..*..*.
*..*..**.
..**.---1
....0..1-

Generation = 20, Population = 22.
....-...-
...-..1..
.......**
........*
-..****.*
..*......
.*.**.***
..***-11-
...*-..--

*** Life<Cell> 8x8 ***

Generation = 0, Population = 27.
---00---
--00--00
-0-0----
0-0-0000
000---0-
-0-----0
0---0---
0000-0--

Generation = 1, Population = 32.
----1000
--11-011
---1-0--
1-101-11
-1-00-10
01--0---
100----0
---10-0-

Generation = 2, Population = 31.
--0-*11-
-0*-01*-
0-0-010-
-0*--0--
0*0-1---
-*--100-
-11-----
00-*1---

Generation = 3, Population = 30.
--1-**-0
-1*-1-.1
-------0
1-.011--
1.--*01-
-.00--10
-**--00-
1-0**0--

Generation = 4, Population = 34.
--*-**-1
0**-*-.-
0001-101
*0.1*--1
**00.1--
0.-1-0*1
-..0----
-0-**---

Generation = 5, Population = 26.
0-*-**--
-..1.1.-
1-1--*--
.1.*.1-*
..-1.*--
1.----**
1..--000
1--**0--

Generation = 6, Population = 28.
--.0**1-
-.*-.-*-
-0-10*01
.-.*.--.
..0*.*--
*.-1-0.*
-*.0--1-
*00.*--0

Generation = 7, Population = 28.
--.1**-1
-.*1.1.-
1-1--*1*
.1...-1.
..1*..10
.*---1..
1..1---0
*11*.0--

Generation = 8, Population = 28.
--*-.*--
0**-.-.-
-0*-0***
.-.*.--.
.**..*-1
.*--1-.*
*..*0-1-
*--**-00

Generation = 9, Population = 35.
0-*1..1-
1..1*-.1
--.11**.
.-.*.-1*
.****.-*
**--*-.*
***.1-*0
.11**--1

Generation = 10, Population = 28.
1-*-*.--
**.*.-.-
1-***...
.1...--*
**..**-*
..0-*1.*
....--*1
*-*.*0-*

Generation = 11, Population = 27.
*0*1..--
*....-.-
*-.**...
.*...11.
******-*
.*--*-.*
.*..-0.*
.-...10*

Generation = 12, Population = 19.
*-**..--
*...*-.-
*-..**..
.....-*.
*..*..1*
..--.1.*
....-1.*
.1...--*

Generation = 13, Population = 20.
.-.*..--
*...*-.-
.0..**..
....*-**
.....*-*
..-1**.*
....1*.*
.-...10.

Generation = 14, Population = 17.
.-....--
...**-.-
.-.**.*.
....*-.*
...*..1*
..0*...*
...*-..*
.-..*-1.

Generation = 15, Population = 19.
.-....--
...**1.-
.-......
....*1.*
..***.**
..1**..*
..**-.**
.-...--.

Generation = 16, Population = 16.
.-..*.--
....**.-
.-.*..*.
....**.*
..*....*
.**.....
..*.-.**
.-...-1.

Generation = 17, Population = 27.
.-..**--
...***.-
.-.*..*.
...***.*
.***..*.
.***..**
.**.-.**
.-...1**

Generation = 18, Population = 17.
.-.*.*1-
...*..*-
.-*...*.
.....*.*
.*......
*....*..
.*.*-...
.1...*.*

Generation = 19, Population = 24.
.-..**-1
..***.*1
.0...***
......*.
......*.
***.....
***.1.*.
.**.....

Generation = 20, Population = 18.
.-..**1*
..**...*
.-***...
........
.*......
*.**.*..
....-...
*.**....

*** Life<Cell> 20x20 ***

Generation = 0, Population = 46.
--0----------0----0-
--------------------
-----------------00-
-0-----0--0---------
0-------0-0---------
0------------------0
0-------0-----------
---0-----0----0-----
--0-----------------
-----0-----00-----00
--0-----------------
------0----------0--
-----------------0--
--------------------
----00---0----------
--------------0--0--
---------0---0------
--0------00---------
-0-0---0--------0--0
---0-0----------0---

Generation = 1, Population = 128.
-0-0--------0-0--0-0
--0----------0---0--
-0-----0--0-----0110
--0---0--010-----00-
1---------10-------0
-0--------0-------0-
10-0---0------0----0
0---0-----0--0-0----
-0---0---0-00-0---00
----0-0---0110---011
-0-0-00----00----000
--0--0-0--------010-
------0---------010-
----00---0-------0--
---0110-0-0---0--0--
----00---------00-0-
--0-----01--0----0--
-------00-10-0--0--0
0-01000-000----0100-
-001--00-------010-0

Generation = 2, Population = 126.
0-0-0------0-0-001--
-0-----0--0---------
0-0-----0-1--0-01-*1
0--0-0--01--0------0
--0---0---*-0----00-
0100---0-01---0--0-0
------0-0-----------
10-----0--------0-0-
--0-0---0-----------
------10--1--1--0--*
0-0-0------------1--
----01--0--00--0--1-
--0-00---0-----0---0
------0-------0-----
--01--1--0-0-0---1--
--0------00-0--11--0
-0-000---*-----00--0
0--000-11--10-0-10--
-0-*---------00--110
-11----1-00---0-*-0-

Generation = 3, Population = 201.
-0---0-0-------1-*0-
0-0-0-0--01------000
10---0--10*0---1*-*-
100----0-*101--00001
--10----00*-100-0-10
1-110-0-01-000-0010-
--00-0----0---0-0000
*1--0---0------0---0
0----000-00--0----00
0----0*1-0-11-00--1.
----1-000-0000-0---0
0--01-00--0110010---
-0--------000--10---
---00-10---0-----0-0
-0-*11*0010-0--0--00
--10000-0110--0---01
--0-1-00-*-0----1-01
-0011--**-1*1010----
-10*-0--0000-1101-*1
0-*---0--110--1-.01-

Generation = 4, Population = 120.
------0-000---0--*--
1------------------1
*-0-----*-.---0-.-.1
-1---00--.-1--------
--*---0---.-*11---*-
--*-10-----11--1-*10
------------0----11-
**---00------0---00-
------1-0-1------0--
10----.*01----1-00*.
----*01-10----------
--01-----01--1---1-0
--0------0---------0
--0--0---0010-----01
0-0.-*.11*---0--0--1
---1-11---*--0--101*
-----0---.---0------
0--*---..--.-1*-1---
---.0----1-10--1*1**
-1*----1--*-0-*-*1--

Generation = 5, Population = 198.
0----0--1-10-0-10.00
*00---0--01------00*
*0-0-000.0.0-0-1.-.*
--0-01-00.1--0----01
--*00010--.0.-*---*-
-1.-*1----1**----.-1
100-0-0-----1--00**-
..0-01-00-0---0-01-0
------*010-0-00---0-
*10-00..-----1--11*.
000-*-*0-1---00-0-00
-0-*-10--1*11-0-0--1
-0---0--0-0000---1--
00-00110-1--1---001*
--1*1*.*-.00-1001-0-
0----**-0-.00-01---*
0---11---.0-0----001
-00.-0-..0-.--*0*-00
010*-0-00-0*--1*.**.
0*.10-0-0-*01-.0.--0

Generation = 6, Population = 174.
1-0-0--0-0-1---*1.--
.11--01----0-----11.
*---0-1-.1.--1--.1..
1-1--*-11*-111-0-0--
--*-------.1.-.0-0*0
-*.-.-00-1*.*0010.1-
*1------0---*0-11..0
..1--*---0--0-10----
00---0.1*11----0-01-
**---1..0--11-10--..
---0.-.1-*-0-----1--
--0*1-----.*--1-1--*
--0---0----1-1--0*--
1-0-1---0-01*00--1**
--*.*...-*1--*11-111
10110..0-1.--0---01*
1-00**--0*-010---11*
0--.--0.*-1.11*1.-1-
--1.0101-1-.-1-..*..
-..-10-11-*1*0*1*1--

Generation = 7, Population = 183.
-01--------*0-0.**0-
**-001----1100-0--*.
*--0--*-.*.--*01.-..
*-*0-*0*-*-----1---1
1-*0-01-0-.*.-.-0-.1
-**-.1110**..1---.*1
*----00--000.--*-*.-
..-00.0001-010*1-100
----0-.*.**---0--1*0
**000*..11--*-*-1-*.
00-1.0.-1.-----0--00
-0-.*100-1.*1---*11.
00---0-00---0*01-.--
----*110-1-*.----*.*
--..**..-.---.**-*-*
---*1..-0-.0---111-.
-0-1.*---.01*1-01--.
10-.-01..--.--.**0*-
01-*-*1---0.0-1..**.
-..1--0-*1*-*1*-*-1-

Generation = 8, Population = 170.
--*-00-----.-0-***-0
*.1--*----**1--1--*.
*----0.-**.0-*-**-..
*-.1-.-.1*11-1-*--0*
*0.--1*-10...1.--0.-
1.*-.*--1...*-010**-
.-00--10011-.--*-*.-
..11-.-1-*----.--*1-
0000--.....-------.-
*.-11***---1.-*0-1..
-10*.-.-*.-0----0-11
0-0..-----.*--11*--*
1-0-0--110-1-*-*-.00
10-0.---0--.*0--0...
--.....*1.---.**1*-.
-01*-..0-1*1-0-**-1.
-1-*.*--0.1***-1*11.
-10.11-..--.-1...1*0
---.-.*10-1.11*....*
0.**1-1-.-*-*-*-.1*0

Generation = 9, Population = 199.
10.-1-0---1*---***0-
..*0-*1-0-***00-0-*.
*00001.0*..-0*-**1**
*-.-0*0.*.-----*--1.
*1*00-*-*-.*.*.--1.1
*.*-**1--.*..11*-.*1
.11-0-*11**0.--*1..-
..**0.-*0*----.10**0
--11-0.**..0--00--*-
*.0*-***--1*.1.11-*.
0*1..0*-..0-0--011*-
10-..--0-1.*1-***11.
-010-00**1-*0*0.0*1-
-10-.--0---.*--01.*.
0-.*...*-.100...-.-.
1--*1.*1-*.-010..-*.
1--..*0--.-..*--.**.
1-1**--.*--.1-.*.-.-
01-.-.*-1-*.-**.....
-..**-*-.1.-*1*1.**-

Generation = 10, Population = 164.
*1*--01010-.-0-**.-0
...--.-01-*..11---..
*-111*.1*..--.0..-.*
.1.11.-.**-11-0*-0*.
*-*-1-.-.0..**.-0-.*
*..1..*--....--*-**-
.**0-0.**..1.0-.-..-
....-.-.-.----.*1.*1
00**01.....10-110-.-
*.1.-...-1-..-.*-1**
1.-**-.1**1-1--1-*.1
-10**-010*..*1...-**
-1*1-1-..--.-.-.1.*0
---0*1---10..--1-.*.
1-.**..*1.*-1.**1*-.
-01**..--.*--*1..-*.
-10...--0.-...-1.**.
-1***--..01.-1...1.-
-*-.-..-*1.*1...*...
0....-.1.-.1**.*...0

*** Life<Cell> 15x15 ***

Generation = 0, Population = 76.
--0--0-----0---
-----0-0--0---0
00---0----00---
0-----000--0000
-----0----00-0-
0000---000-0--0
0-------00-0---
-000-0--00---0-
--0-00---------
0-0-000-0-00---
-0-0-0000------
-0----0-0------
-0-0----0-----0
0------0------0
-000-0------0--

Generation = 1, Population = 119.
-0-00100----0-0
000-0---0010-0-
-10-01--00---0-
1----01-1001-11
-0000-----11010
---100011-0-0--
10---0--11-1000
-1110100--000-0
0--0-1---000-0-
-010---01-110--
-10-0---1000---
0-0---10-0----0
-1--0-0-10---01
-00--00-----001
-1-1--00---0-00

Generation = 2, Population = 105.
-1011--1-00--0-
1--0-00--1-101-
0------0110-0--
-0-00-*--11-0*-
-1-1-0-0--**1*-
0---11---01--0-
*---0-00-*-----
0--*---1-0----1
-00-0*---1-1---
--*--001--*-1--
--10-000-11---0
--10-0-1---0--1
-*00-0-0*-0---*
011--11-00--1-*
0*0-0--10-0-0--

Generation = 3, Population = 107.
-*-**-----1--10
*--10110---*1-0
1---0101---0-0-
-1--10*0--*11.1
-*-*-10-00..*.0
1-------1----10
*0--101--*---00
1--*01-*--00-0-
-1-01*--0*0---0
--.--11-10.1-00
-1*--111-*--001
--*1--1--00-00-
-.----0-.0--00*
--*---*-1100*-.
-.-----*-0--100

Generation = 4, Population = 100.
-.-*.-01-0---*-
*-0--**-0--**-1
*---1--*1-----0
-*0---.---**-.*
-*-.0--0-1*.*.-
*0-11--1*0----1
*10--1*--*-101-
*11.-*0*-0-1-11
----*.---.-1-01
--.0-*-1-1.-1-1
0**-0--*1.-----
--**0---011-111
-.-0-0-0.-0-11*
-1.0-1*0*---.0.
-.0----*01----1

Generation = 5, Population = 89.
0.-..--*0-10-*-
.----*.-1-1.*1*
*--0---*-10-00-
-*10--.-1-**-*.
-.-.11010-...*-
.10*----.1-0---
.-----.0-*----0
**-*-.1*-1--0*-
010-*.0--.0*0-*
00*--*-*1-.--0*
1*.-1-1*-.1--0-
0-..---1-----*-
-.--0101.-1---.
0-.1--.-.-0-*1.
-.---0-.1*0----

Generation = 6, Population = 107.
-.-..10*---10*-
.--10.*0*1-..-*
.--1110*-*10-1-
-*---0.0*1**1**
-.-.*-----.*..0
.*-*-10-.*--011
*-0---*1-*010--
*.1*-*-*-*---.1
1--0*.100*1*--*
1-.00.-.*1*1--*
*.*0-1*.-.-00--
1-..-01-0---1.1
-.--1---.0*01-.
-1.---.0*---.*.
0.-10-0.**-010-

Generation = 7, Population = 96.
-.-.**1.-01*-*-
.-0--..-.--..1*
.10-**1.-.*-0*0
1.1011.-.*..-.*
-.-.*1010-....-
.*0*1*--**-0---
*110-1.--*-----
*.-.0*-.0.0-0**
-1-1..*11.**00*
-0.1-.-..*.*-0.
*.*-1-*.-.---0-
*0.*------10-.-
0.-0--01.1*---.
--.1--.1.10-.*.
-.0*1--.**-1--1

Generation = 8, Population = 90.
-.0..**.01-.-*-
.-11-..-.1-..*.
.*11..*.-..-1.1
-.---*.0**..1.*
0.-..----1*...0
*.1.*.--.*--0--
***---*-1.-1010
*.1.1*-.1.11-.*
-*-*.**--...1-.
-1.*-*-.**.*1-.
*..---..-.1-011
*1.*---1---11.-
1*0-111-.-.--1.
0-.---**.*--...
-.1**0-.**0-1--

Generation = 9, Population = 115.
-.1*....1-1.0.0
.-*-0**-**1.***
.**-*.**1*.0*.*
1*101.*1*****.*
1*0..1-1-***..1
*.**..0-**--1--
*.*0--.-*.--1--
*.*.*.1.***-0.*
-*0*..*1-...*0.
-*..-*-..**.*-.
*..--1..1*--1-*
.-.*-0--0--*-.1
*.10*--1*1.0--.
1-.1-1.*.*--...
0.***1-***1--0-

Generation = 10, Population = 86.
-.-***.**1*.1.1
.-.1-.*0..-...*
*..1....-..-..*
-.---..-......*
*.1..--*-.....*
*...*.-1..--*11
*..---.1..01-10
*...***.**.--..
-.1**.**-...*1.
-*..0*-*.**.*-.
...01-*.-.--*-.
.-**011--11*-**
.**-.11-.-.11-.
-1.--*....-0...
1***.--*.**11-1

Generation = 11, Population = 90.
-.1***.**-..-**
.-*--**-.*1...*
...*....-..-.**
-*10-..1.....**
.*-..-0.0.....*
*.....0-*.1-***
**.--1.*.*1*1--
.*..*...***10.*
1**.....-.****.
1...1.-**...*-.
...-*-.*-.--*-.
.-..1**10*-.-*.
.*.-.*-1.1.**-.
--.10*....--.*.
***..10...***--

Generation = 12, Population = 84.
-.-***.**-..1**
.0*1-**-***....
.*.**.*.-..-...
1*--1..-.......
**-..11.1*..*..
*....*11*.*0*.*
**.---**..-.*--
........*..-1..
-.**...*-......
*..**.1**....-.
...0*-..1*-0*-.
.1..-..--*1*1*.
...0..1*.**.*1.
1-.*-.....0-.*.
.***.-1....**--

Generation = 13, Population = 77.
-.-*.*.**-..**.
.-.*-..0**...*.
......**1*.-...
-.1-*.*-.......
..1.*--.-**.**.
......-*..*-*..
**.---...*1.*10
.**...*.*..1*..
1.***.*.1......
.....**..*...-.
..*-*1..-.1-.-.
.-**1..1-.*.-..
..*1..*.*....**
--.*0.**.*1-.*.
.***.1-....**--

Generation = 14, Population = 81.
-.1.*.**.-..**.
.-..0..1....**.
...*.**.**.-...
-.*-..*-..*....
..*..11.1**.**.
.*....1.*..-..*
***---.***-..-1
.....*..*.***..
-.***.*.**.....
.**...**.*...-.
..*0.-..-**0.-.
.1..-.*--*..-..
...*..*.*.*..**
-1..1.*****-.**
..**.--...***--

Generation = 15, Population = 86.
-.-*.***.-..**.
.-..1..*....**.
...****.**.-...
-.*-*..1..**...
.**..**.-.**.*.
*....**...*-..*
***0-1*...-*.1*
....***...**...
-****.*....*...
.*..****.....-.
...1.-**1*.1.-.
.-.*-..1-..*-..
..*...*...*..**
1-..-**.*..-..*
..**.-1**.***-1

*** Life<Cell> 9x9 ***

Generation = 0, Population = 34.
--00-0--0
0----0--0
-0-0---0-
0----0000
-0---0-0-
00----0-0
00-0-0---
--00000--
----00-0-

Generation = 1, Population = 47.
0011-1001
--0-010-1
0---0--10
-0-00---1
010-01-10
-100-0-0-
--01010-0
0-111-1--
--0---0-0

Generation = 2, Population = 36.
1-**0-1--
--10-*---
--0----*1
01011--0-
1--------
------010
0-1-1*-0-
--**-0-0-
001-001--

Generation = 3, Population = 47.
--*.11-0-
00*-0*-01
0--0000**
--1-*001-
*-000-0-0
--0-0-1*1
--*1**0--
--..--110
1--011*--

Generation = 4, Population = 39.
1-*.---1-
--*01.01-
1-01--1..
-1*-.1--1
.-1-11--1
01---0*.-
-0*-*.10-
0-*.-0*-1
-011--*-0

Generation = 5, Population = 41.
--*.1--*1
-0.1**--1
-01---*..
-*.-.*-1*
*1*-**-1*
1-0-0-..1
0-*-*.*1-
--..-1.1*
-1**1-*-1

Generation = 6, Population = 45.
--*.*-1*-
01.***--*
11*-00*.*
-..-**0-*
***-**--.
-1----..*
1-.-*.*-0
00..1-.-*
1****1*0*

Generation = 7, Population = 33.
1-*.*1**-
--....0-*
-**11-..*
-..1..--.
***-*.--.
1*---0.*.
*0.1.*.--
1-..--.-*
-.***-*-*

Generation = 8, Population = 35.
--...-**-
01....11*
1.***0.*.
0..*..--.
*.*0*.-1.
*.-0-1*..
.-*-*.*10
*-..11.1.
1..*.-.-.

Generation = 9, Population = 35.
10...1*.-
-****.--*
-.***1.**
-....*--.
*.*-.*--.
..01-*..*
.0.1...*1
.0..-*.**
*...*1.0.

Generation = 10, Population = 34.
*-.***..1
-.....1-*
-*...-***
0**..*01.
.**-.*0-.
..---.***
.1.*....*
*1*.-*...
....*-.1*

Generation = 11, Population = 39.
.0..**.**
0...*.*1*
-**..-..*
1.....--*
*.*0..11*
.*01-**.*
**....*.*
****-..**
.*...-.*.

Generation = 12, Population = 33.
.-..**..*
-.***.**.
1*...-..*
*..*..0-*
*..-**--*
..1--*..*
....***.*
....1.*.*
**...-.**

Generation = 13, Population = 37.
.-..****.
0****.***
-*..*-*.*
*...**--*
.*.-**-1*
..-10...*
...**.*.*
....*.*.*
.....-.**

Generation = 14, Population = 29.
.0*.*...*
1**.....*
1....1*.*
**.*..--*
...-..-**
..1-1.*.*
........*
...**.*.*
.....-.**

Generation = 15, Population = 23.
*-**.....
-.**.*..*
-....*..*
**....0-*
.**0..-.*
..---...*
....*...*
........*
.....-.**

Generation = 16, Population = 33.
.-***....
1***.....
1**.***.*
**....--*
***1..1.*
..111..**
.......**
........*
.....-.**

Generation = 17, Population = 17.
.-..*....
-........
*...**.*.
....*.-1*
*..-*.-.*
..-**.*..
...*.....
.........
.....-.**

Generation = 18, Population = 21.
.-.......
1...**...
....*****
...**.0-*
...-*.1.*
..1***...
...**....
.........
.....-...

Generation = 19, Population = 12.
.-.......
-...*..*.
........*
...*..-1*
..*1..*..
..*......
..*..*...
.........
.....-...

Generation = 20, Population = 9.
.-.......
-........
........*
..**..-**
..*-...*.
.**......
.........
.........
.....-...
