*** Life<ConwayCell> 1x1 ***

Generation = 0, Population = 1.
*

Generation = 1, Population = 0.
.

Generation = 2, Population = 0.
.

Generation = 3, Population = 0.
.

Generation = 4, Population = 0.
.

Generation = 5, Population = 0.
.

*** Life<ConwayCell> 5x5 ***

Generation = 0, Population = 5.
.....
..*..
.....
**...
*..*.

Generation = 1, Population = 5.
.....
.....
.*...
**...
**...

Generation = 2, Population = 5.
.....
.....
**...
..*..
**...

Generation = 3, Population = 3.
.....
.....
.*...
..*..
.*...

Generation = 4, Population = 2.
.....
.....
.....
.**..
.....

Generation = 5, Population = 0.
.....
.....
.....
.....
.....

Generation = 6, Population = 0.
.....
.....
.....
.....
.....

Generation = 7, Population = 0.
.....
.....
.....
.....
.....

Generation = 8, Population = 0.
.....
.....
.....
.....
.....

Generation = 9, Population = 0.
.....
.....
.....
.....
.....

Generation = 10, Population = 0.
.....
.....
.....
.....
.....

*** Life<ConwayCell> 10x10 ***

Generation = 0, Population = 19.
..*..*..**
......*.*.
..........
........*.
*..*.**...
.*.**.....
*..*.....*
..........
...*..*...
..........

Generation = 1, Population = 17.
.......***
.......***
.......*..
..........
..**.*....
**.*.*....
..***.....
..........
..........
..........

Generation = 2, Population = 15.
.......*.*
......*..*
.......*..
..........
.***......
.*...*....
.****.....
...*......
..........
..........

Generation = 3, Population = 12.
........*.
......**..
..........
..*.......
.**.......
*.........
.*.**.....
...**.....
..........
..........

Generation = 4, Population = 14.
.......*..
.......*..
..........
.**.......
.**.......
*..*......
..***.....
..***.....
..........
..........

Generation = 5, Population = 9.
..........
..........
..........
.**.......
*..*......
....*.....
.*........
..*.*.....
...*......
..........

Generation = 6, Population = 9.
..........
..........
..........
.**.......
.***......
..........
...*......
..**......
...*......
..........

Generation = 7, Population = 12.
..........
..........
..........
.*.*......
.*.*......
...*......
..**......
..***.....
..**......
..........

Generation = 8, Population = 8.
..........
..........
..........
..........
...**.....
...**.....
..........
.*..*.....
..*.*.....
..........

Generation = 9, Population = 8.
..........
..........
..........
..........
...**.....
...**.....
...**.....
...*......
...*......
..........

Generation = 10, Population = 7.
..........
..........
..........
..........
...**.....
..*..*....
..*.......
..**......
..........
..........

*** Life<ConwayCell> 15x15 ***

Generation = 0, Population = 23.
........*......
...............
....*....*.....
...............
...............
..*...........*
..*.....*...*.*
....**...*.....
...............
...........*..*
...............
*..*.*..*......
*.....*........
............*.*
.*.............

Generation = 1, Population = 3.
...............
...............
...............
...............
...............
.............*.
...*.........*.
...............
...............
...............
...............
...............
...............
...............
...............

Generation = 2, Population = 0.
...............
...............
...............
...............
...............
...............
...............
...............
...............
...............
...............
...............
...............
...............
...............

Generation = 3, Population = 0.
...............
...............
...............
...............
...............
...............
...............
...............
...............
...............
...............
...............
...............
...............
...............

Generation = 4, Population = 0.
...............
...............
...............
...............
...............
...............
...............
...............
...............
...............
...............
...............
...............
...............
...............

Generation = 5, Population = 0.
...............
...............
...............
...............
...............
...............
...............
...............
...............
...............
...............
...............
...............
...............
...............

Generation = 6, Population = 0.
...............
...............
...............
...............
...............
...............
...............
...............
...............
...............
...............
...............
...............
...............
...............

Generation = 7, Population = 0.
...............
...............
...............
...............
...............
...............
...............
...............
...............
...............
...............
...............
...............
...............
...............

Generation = 8, Population = 0.
...............
...............
...............
...............
...............
...............
...............
...............
...............
...............
...............
...............
...............
...............
...............

Generation = 9, Population = 0.
...............
...............
...............
...............
...............
...............
...............
...............
...............
...............
...............
...............
...............
...............
...............

Generation = 10, Population = 0.
...............
...............
...............
...............
...............
...............
...............
...............
...............
...............
...............
...............
...............
...............
...............

*** Life<ConwayCell> 10x10 ***

Generation = 0, Population = 41.
..*.*.*.**
.....**...
....*.**..
....*..**.
*.*..*..*.
**.*...*.*
.**.**.***
*...**..*.
*..*...*..
*.**.*..*.

Generation = 1, Population = 40.
......**..
...**...*.
....*...*.
...**...*.
*.***.*..*
*..*.*.*.*
..*..*.*.*
*.*..*...*
*.**.****.
.****.....

Generation = 2, Population = 38.
.......*..
...***..*.
.....*.***
..*....***
.**...**.*
.....*.*.*
..**.*...*
..*..*...*
*....****.
.*..****..

Generation = 3, Population = 31.
....*.....
....**...*
...*.*....
.**.......
.**......*
.*.***.*.*
..**.*...*
.***.*.*.*
.*......*.
....*...*.

Generation = 4, Population = 28.
....**....
...*.*....
..**.*....
.*.*......
*...*...*.
.*...**..*
.....*...*
.*.*..*..*
.*.**..***
..........

Generation = 5, Population = 35.
....**....
..**.**...
...*......
.*.*......
***.**....
....***.**
..*.**..**
...*.***.*
...**..***
........*.

Generation = 6, Population = 29.
...****...
..**.**...
...*......
**.*......
***...*...
..*...****
..........
..*.......
...***...*
.......***

Generation = 7, Population = 27.
..**..*...
..*...*...
.*.*......
*..*......
*..*..*.*.
..*...***.
.......**.
...**.....
...**....*
....*...**

Generation = 8, Population = 29.
..**......
.*........
.*.*......
**.**.....
.***..*.*.
......*..*
...*..*.*.
...**...*.
.....*..**
...**...**

Generation = 9, Population = 33.
..*.......
.*.*......
.*.**.....
*...*.....
**.***.*..
...*.**.**
...***..**
...***..*.
.....*.*..
....*...**

Generation = 10, Population = 27.
..*.......
.*.**.....
**.**.....
*.........
****...**.
.........*
..*.......
...*...***
...*.***.*
........*.

Generation = 11, Population = 28.
..**......
**..*.....
**.**.....
....*.....
***.....*.
...*....*.
.........*
..***..*.*
....*.*..*
......***.

Generation = 12, Population = 33.
.***......
*...*.....
******....
....*.....
.***......
.**.....**
..*.*....*
...***...*
....*.*..*
.....****.

Generation = 13, Population = 28.
.***......
*....*....
***..*....
*....*....
.*.*......
........**
.**.**...*
........**
...*.....*
.....****.

Generation = 14, Population = 26.
.**.......
*..**.....
*...***...
*...*.....
..........
.*.**...**
..........
..***...**
......*..*
......***.

Generation = 15, Population = 22.
.***......
*.***.....
**........
....*.....
...**.....
..........
..........
...*....**
...*.**..*
......***.

Generation = 16, Population = 23.
.*..*.....
*...*.....
***.*.....
...**.....
...**.....
..........
..........
....*...**
....***..*
.....****.

Generation = 17, Population = 21.
..........
*.*.**....
***.**....
.*...*....
...**.....
..........
..........
....*...**
....*....*
....*..**.

Generation = 18, Population = 19.
..........
*.*.**....
*.*...*...
**...*....
....*.....
..........
..........
........**
...***.*.*
........*.

Generation = 19, Population = 18.
..........
...*.*....
*.***.*...
**...*....
..........
..........
..........
....*...**
....*..*.*
....*...*.

Generation = 20, Population = 21.
..........
..**.*....
*.**..*...
******....
..........
..........
..........
........**
...***.*.*
........*.

*** Life<ConwayCell> 9x9 ***

Generation = 0, Population = 41.
.....*..*
*..***.*.
**.*.*.*.
*.*..**.*
.**..*...
***.*..*.
.*.**..**
***.***.*
*..**..*.

Generation = 1, Population = 36.
.....**..
****.*.**
*..*...**
*..*.*.*.
....**.*.
*...*****
........*
*.....*.*
*.***.**.

Generation = 2, Population = 31.
.**.****.
****.*..*
*..*.....
...*.*.*.
...*.....
....*...*
........*
.*.*.**.*
.*.*.***.

Generation = 3, Population = 21.
*...****.
*....*.*.
*..*..*..
..**.....
...*.....
.........
....**..*
.....*..*
.....*.*.

Generation = 4, Population = 23.
....**.*.
**.....*.
.****.*..
..***....
..**.....
....*....
....**...
.....*.**
......*..

Generation = 5, Population = 19.
......*..
**.....*.
*...**...
.....*...
..*......
....**...
....***..
....**.*.
......**.

Generation = 6, Population = 22.
.........
**...**..
**..***..
....**...
....**...
...**.*..
...*.....
....*..*.
.....***.

Generation = 7, Population = 17.
.........
**..*.*..
**.......
...*.....
......*..
...*.....
...*.*...
....**.*.
.....***.

Generation = 8, Population = 13.
.........
**.......
***......
.........
.........
....*....
...*.**..
.......*.
....**.*.

Generation = 9, Population = 12.
.........
*.*......
*.*......
.*.......
.........
....**...
....***..
.......*.
......*..

Generation = 10, Population = 8.
.........
.........
*.*......
.*.......
.........
....*.*..
....*.*..
.......*.
.........

Generation = 11, Population = 4.
.........
.........
.*.......
.*.......
.........
.........
......**.
.........
.........

Generation = 12, Population = 0.
.........
.........
.........
.........
.........
.........
.........
.........
.........

Generation = 13, Population = 0.
.........
.........
.........
.........
.........
.........
.........
.........
.........

Generation = 14, Population = 0.
.........
.........
.........
.........
.........
.........
.........
.........
.........

Generation = 15, Population = 0.
.........
.........
.........
.........
.........
.........
.........
.........
.........

Generation = 16, Population = 0.
.........
.........
.........
.........
.........
.........
.........
.........
.........

Generation = 17, Population = 0.
.........
.........
.........
.........
.........
.........
.........
.........
.........

Generation = 18, Population = 0.
.........
.........
.........
.........
.........
.........
.........
.........
.........

Generation = 19, Population = 0.
.........
.........
.........
.........
.........
.........
.........
.........
.........

Generation = 20, Population = 0.
.........
.........
.........
.........
.........
.........
.........
.........
.........

*** Life<ConwayCell> 8x8 ***

Generation = 0, Population = 27.
...**...
..**..**
.*.*....
*.*.****
***...*.
.*.....*
*...*...
****.*..

Generation = 1, Population = 21.
..***...
........
.*......
*...****
*.**....
..*.....
*..**...
*****...

Generation = 2, Population = 24.
...*....
..**....
.....**.
*.*****.
..*****.
..*.*...
*...*...
***.*...

Generation = 3, Population = 20.
..**....
..***...
.*....*.
.**....*
......*.
.**.....
*.*.**..
**.*....

Generation = 4, Population = 20.
..*.*...
.*..*...
.*......
.**...**
........
.***.*..
*...*...
*****...

Generation = 5, Population = 21.
...*....
.***....
**......
.**.....
...*..*.
.****...
*....*..
*****...

Generation = 6, Population = 22.
...*....
**.*....
*..*....
***.....
....*...
.*****..
*....*..
*****...

Generation = 7, Population = 24.
..*.....
**.**...
...*....
****....
*...**..
.***.*..
*....*..
*****...

Generation = 8, Population = 25.
.***....
.*.**...
........
****....
*....*..
****.**.
*....*..
*****...

Generation = 9, Population = 24.
.*.**...
.*.**...
*...*...
***.....
.....**.
*.*..**.
.....**.
*****...

Generation = 10, Population = 23.
...**...
**...*..
*...*...
**...*..
*.*..**.
....*..*
*.....*.
.*****..

Generation = 11, Population = 25.
....*...
**.*.*..
....**..
*...***.
*...***.
.*.....*
.**...*.
.*****..

Generation = 12, Population = 23.
....*...
...*.*..
**.*....
...*....
**..*..*
***....*
*...***.
.*.***..

Generation = 13, Population = 16.
....*...
..**....
...*....
...**...
*..*....
..***..*
*.....*.
...*..*.

Generation = 14, Population = 16.
...*....
..***...
........
..***...
........
.****...
..*.****
........

Generation = 15, Population = 19.
..***...
..***...
........
...*....
.*......
.**.*.*.
.**.***.
.....**.

Generation = 16, Population = 17.
..*.*...
..*.*...
..*.*...
........
.*.*....
*...*.*.
.**.*..*
....*.*.

Generation = 17, Population = 15.
........
.**.**..
........
..**....
........
*...**..
.*..*.**
...*.*..

Generation = 18, Population = 12.
........
........
.*..*...
........
...**...
....***.
...*..*.
....***.

Generation = 19, Population = 10.
........
........
........
...**...
...**...
......*.
...*...*
....***.

Generation = 20, Population = 12.
........
........
........
...**...
...***..
...**...
....*..*
....***.

*** Life<ConwayCell> 20x20 ***

Generation = 0, Population = 46.
..*..........*....*.
....................
.................**.
.*.....*..*.........
*.......*.*.........
*..................*
*.......*...........
...*.....*....*.....
..*.................
.....*.....**.....**
..*.................
......*..........*..
.................*..
....................
....**...*..........
..............*..*..
.........*...*......
..*......**.........
.*.*...*........*..*
...*.*..........*...

Generation = 1, Population = 20.
....................
.................**.
....................
.........*..........
**.......*..........
**.......*..........
....................
....................
....................
....................
..................*.
....................
....................
....................
....................
....................
.........**.........
..*.....***.........
...**...............
..*.*...............

Generation = 2, Population = 16.
....................
....................
....................
....................
**......***.........
**..................
....................
....................
....................
....................
....................
....................
....................
....................
....................
....................
........*.*.........
...*....*.*.........
..*.*....*..........
....*...............

Generation = 3, Population = 13.
....................
....................
....................
.........*..........
**.......*..........
**.......*..........
....................
....................
....................
....................
....................
....................
....................
....................
....................
....................
....................
...*....*.*.........
....*....*..........
...*................

Generation = 4, Population = 11.
....................
....................
....................
....................
**......***.........
**..................
....................
....................
....................
....................
....................
....................
....................
....................
....................
....................
....................
.........*..........
...**....*..........
....................

Generation = 5, Population = 7.
....................
....................
....................
.........*..........
**.......*..........
**.......*..........
....................
....................
....................
....................
....................
....................
....................
....................
....................
....................
....................
....................
....................
....................

Generation = 6, Population = 7.
....................
....................
....................
....................
**......***.........
**..................
....................
....................
....................
....................
....................
....................
....................
....................
....................
....................
....................
....................
....................
....................

Generation = 7, Population = 7.
....................
....................
....................
.........*..........
**.......*..........
**.......*..........
....................
....................
....................
....................
....................
....................
....................
....................
....................
....................
....................
....................
....................
....................

Generation = 8, Population = 7.
....................
....................
....................
....................
**......***.........
**..................
....................
....................
....................
....................
....................
....................
....................
....................
....................
....................
....................
....................
....................
....................

Generation = 9, Population = 7.
....................
....................
....................
.........*..........
**.......*..........
**.......*..........
....................
....................
....................
....................
....................
....................
....................
....................
....................
....................
....................
....................
....................
....................

Generation = 10, Population = 7.
....................
....................
....................
....................
**......***.........
**..................
....................
....................
....................
....................
....................
....................
....................
....................
....................
....................
....................
....................
....................
....................

*** Life<ConwayCell> 15x15 ***

Generation = 0, Population = 76.
..*..*.....*...
.....*.*..*...*
**...*....**...
*.....***..****
.....*....**.*.
****...***.*..*
*.......**.*...
.***.*..**...*.
..*.**.........
*.*.***.*.**...
.*.*.****......
.*....*.*......
.*.*....*.....*
*......*......*
.***.*......*..

Generation = 1, Population = 64.
......*........
.*..**....*....
**...*..***...*
**...***.*...**
*.*............
***....*...*...
*...*.......*..
.***.*..***....
.......**.*....
..*.....**.....
**.*....*......
**..***.**.....
***.....*......
*..**........*.
.**............

Generation = 2, Population = 65.
.....*.........
**..***...*....
..*....**.*..**
..*..***.**..**
..*....**......
*.**...........
*...*...****...
.****..**.**...
.*.*...*..*....
.**............
*..***.........
...***..**.....
..*....***.....
*..*...........
.***...........

Generation = 3, Population = 64.
....***........
.*..****.*.....
..***...*.**.**
.***......*..**
..*....***.....
..**...*..*....
*...*..**..*...
**..*..*.......
*...*..*****...
**.............
.*...*.........
..*..***.*.....
..*....*.*.....
...*....*......
.***...........

Generation = 4, Population = 71.
....*..*.......
..*....****....
......***.*****
.*..*..*..*****
.......****....
.***..*...*....
*.*.*.***......
**.****....*...
.......****....
**......***....
***..*.........
.**..*.*.......
..**...*.*.....
.*.*....*......
..**...........

Generation = 5, Population = 53.
.......*.*.....
..........*.**.
......*.......*
..............*
.*.*..***...**.
.***.**...*....
*..............
*****.....*....
..*.****...*...
*.*....*..*....
......*.**.....
*...*...*......
...**.**.......
.*..*...*......
..**...........

Generation = 6, Population = 51.
...............
.............*.
..............*
......*.......*
.*.*****.....*.
**.****........
*....*.........
*.*.*.*........
*...****..**...
.*.*.....**....
.*......**.....
...**.*.**.....
...**..**......
....**.*.......
..**...........

Generation = 7, Population = 52.
...............
...............
.............**
....*.**.....**
**.*...*.......
**.*...*.......
*.*............
*..**..*.......
*.*.*.**.***...
***.****...*...
...**..*.......
..****.........
.........*.....
..*..****......
...**..........

Generation = 8, Population = 48.
...............
...............
.............**
......**.....**
**.**..**......
...*...........
*.*.*..........
*.*.*****.*....
*.*.......**...
*.*........*...
.......*.......
..*..*.........
..*....**......
...******......
...*****.......

Generation = 9, Population = 46.
...............
...............
.............**
......***....**
..***.***......
*..............
..*.*.**.......
*.*.****.***...
*.*..***.***...
..........**...
.*.............
......***......
..*.....*......
..*............
...*....*......

Generation = 10, Population = 39.
...............
...............
.......*.....**
...*.**.*....**
...*.**.*......
.**.*...*......
....*..**.*....
..*.*....*.*...
...**..*....*..
.*....*..*.*...
.......*.......
.......**......
........*......
..**...........
...............

Generation = 11, Population = 45.
...............
...............
......**.....**
.....*..*....**
...*..*.**.....
..*.*.*.*......
.**.**.**.*....
....**.*.***...
..****..*..**..
......***......
......**.......
.......**......
.......**......
...............
...............

Generation = 12, Population = 33.
...............
...............
......**.....**
.....*..**...**
...**.*.**.....
.**.*.*........
.**.......**...
.*.....*....*..
...*.......**..
...**...*......
...............
...............
.......**......
...............
...............

Generation = 13, Population = 34.
...............
...............
......***....**
....**...*...**
..***.*.**.....
.*..*..*.**....
*..*.......*...
.*........*.*..
..***......**..
...**..........
...............
...............
...............
...............
...............

Generation = 14, Population = 35.
...............
.......*.......
.....****....**
....*....*...**
..*...**.......
.*..**.*.**....
***......*.*...
.*..*.....*.*..
..*.*......**..
..*.*..........
...............
...............
...............
...............
...............

Generation = 15, Population = 39.
...............
.......**......
.....****....**
.............**
...**.**.**....
*..*.*.*.**....
*.****..**.*...
*.........*.*..
.**.**.....**..
...............
...............
...............
...............
...............
...............

*** Life<ConwayCell> 9x9 ***

Generation = 0, Population = 34.
..**.*..*
*....*..*
.*.*...*.
*....****
.*...*.*.
**....*.*
**.*.*...
..*****..
....**.*.

Generation = 1, Population = 27.
....*....
.*.*..***
**..**...
***.**..*
.*...*...
....****.
*..*...*.
.**......
.........

Generation = 2, Population = 27.
.......*.
****..**.
........*
..**..*..
****...*.
....**.*.
.*****.*.
.**......
.........

Generation = 3, Population = 23.
.**...**.
.**...***
......*..
...*...*.
.*...*.*.
*....*.**
.*...*...
.*..*....
.........

Generation = 4, Population = 25.
.**...*.*
.**..*..*
..*...*.*
.......*.
....*..*.
**..**.**
**..***..
.........
.........

Generation = 5, Population = 28.
.**....*.
...*.**.*
.**...*.*
......***
....**.*.
**.*...**
**..*.**.
.....*...
.........

Generation = 6, Population = 27.
..*...**.
...*.**.*
..*.....*
........*
....**...
****....*
***.*****
.....**..
.........

Generation = 7, Population = 20.
.....***.
..**.**.*
........*
.........
.****....
*.......*
*...*...*
.*..*....
.........

Generation = 8, Population = 17.
....**.*.
....**..*
.......*.
..**.....
.***.....
*.*.*....
**.......
.........
.........

Generation = 9, Population = 15.
....***..
....**.**
...**....
.*.*.....
....*....
*........
**.......
.........
.........

Generation = 10, Population = 13.
....*.**.
.......*.
..**.*...
..**.....
.........
**.......
**.......
.........
.........

Generation = 11, Population = 18.
......**.
...***.*.
..***....
..***....
.**......
**.......
**.......
.........
.........

Generation = 12, Population = 11.
....****.
..*..*.*.
.........
....*....
*........
.........
**.......
.........
.........

Generation = 13, Population = 8.
....**.*.
....**.*.
.........
.........
.........
**.......
.........
.........
.........

Generation = 14, Population = 4.
....**...
....**...
.........
.........
.........
.........
.........
.........
.........

Generation = 15, Population = 4.
....**...
....**...
.........
.........
.........
.........
.........
.........
.........

Generation = 16, Population = 4.
....**...
....**...
.........
.........
.........
.........
.........
.........
.........

Generation = 17, Population = 4.
....**...
....**...
.........
.........
.........
.........
.........
.........
.........

Generation = 18, Population = 4.
....**...
....**...
.........
.........
.........
.........
.........
.........
.........

Generation = 19, Population = 4.
....**...
....**...
.........
.........
.........
.........
.........
.........
.........

Generation = 20, Population = 4.
....**...
....**...
.........
.........
.........
.........
.........
.........
.........
