*** Life<Cell> 8x8 ***

Generation = 0, Population = 6.
0-------
--------
--------
---00---
---00---
--------
--------
-------0

Generation = 1, Population = 12.
-0------
0-------
---00---
--0--0--
--0--0--
---00---
-------0
------0-

Generation = 2, Population = 20.
--0-----
---00---
0--11---
-01--10-
-01--10-
---11--0
---00---
-----0--

Generation = 3, Population = 12.
-0--0---
0----0--
------0-
-------0
0-------
-0------
--0----0
---0--0-

Generation = 4, Population = 8.
--00----
--------
0-------
0-------
-------0
-------0
--------
----00--

Generation = 5, Population = 24.
-0110---
0-00----
10------
10-----0
0-----01
------01
----00-0
---0110-

*** Life<Cell> 7x9 ***

Generation = 0, Population = 4.
0--------
---------
---------
--0------
---------
----0----
--------0

Generation = 1, Population = 12.
-0-------
0--------
--0------
-0-0-----
--0-0----
---0-0--0
----0--0-

Generation = 2, Population = 7.
--0------
--0------
0--------
0--------
--------0
------0--
------0--

Generation = 3, Population = 23.
-010-----
0010-----
100------
10------0
0-----00-
-----0100
-----010-

Generation = 4, Population = 14.
--*-0----
----0----
*-------0
*-----0--
1-------0
0---0---1
----0-*--

Generation = 5, Population = 35.
-0.-10---
0-1010--0
.0--0-00-
*0---0-0-
-0--0-001
10-01010*
0--01-.00

*** Life<Cell> 8x8 ***

Generation = 0, Population = 10.
000-000-
0-------
0-------
0-------
0-------
--------
--------
--------

Generation = 2, Population = 15.
-0*-*0-1
--1-----
01--000-
--0-----
--0-----
1-------
0-------
--------

Generation = 4, Population = 14.
-*.-.--1
1-.-----
*.---0*-
--*-1---
*1---00-
.-------
*-------
1-------

Generation = 6, Population = 27.
0..-.-*-
.-.-0-1-
.*101-.1
--*-1---
**1-0**1
*10-0---
.-0--00-
*-0-----

*** Life<Cell> 1x1 ***

Generation = 0, Population = 1.
0

Generation = 1, Population = 0.
-

*** Life<Cell> 1x2 ***

Generation = 0, Population = 2.
00

Generation = 1, Population = 2.
11

*** Life<Cell> 1x5 ***

Generation = 0, Population = 2.
0---0

Generation = 2, Population = 2.
0---0

*** Life<Cell> 8x8 ***

Generation = 0, Population = 10.
-------0
0-------
0------0
0------0
0------0
0------0
--------
--------

Generation = 2, Population = 19.
1----0-0
--0----0
--0--0-*
0-0--0--
--0--0--
--0--0--
1------1
0------0

Generation = 4, Population = 25.
---0-0--
--*-0---
--011*0*
--0110-1
--0110-0
*-*11*--
.------.
--------

Generation = 6, Population = 29.
-000101-
1-.0--1-
01-.-.0*
-1*-1-11
11*----*
.-....--
.0-11--.
--0000--

*** Life<Cell> 1x2 ***

Generation = 0, Population = 2.
00

Generation = 1, Population = 2.
11

*** Life<Cell> 2x2 ***

Generation = 0, Population = 4.
00
00

Generation = 1, Population = 0.
--
--

*** Life<Cell> 6x5 ***

Generation = 0, Population = 3.
-----
0----
0----
0----
-----
-----

Generation = 1, Population = 7.
0----
10---
-0---
10---
0----
-----

*** Life<Cell> 3x3 ***

Generation = 0, Population = 6.
0-0
0-0
0-0

Generation = 1, Population = 4.
1-1
---
1-1

Generation = 2, Population = 0.
---
---
---
