*** Life<Cell> 50x50 ***

Generation = 0, Population = 30.
--------------------------------------------------
--------------------------------------------------
--------------------------------------------------
--------------------------------------------------
---------------------------0----------------------
--------------------------------------------------
--------------------------------------------------
--------------------------------------------------
-------------------------0------------------------
------------0-------------------------------------
--------------------------------------------------
-------------0------------0-----------------------
-------------0------------------------------------
--------------------------------------------------
--------------------------------------------------
-----0--------------------------------------------
-------------0---------0--------------------------
--------------------------------------------------
--------------------------------------------------
---------------0----------------------------------
------------------------------------------------0-
--0-----------------------------------------------
-----------------------0--------------------------
--------------------------------------------------
--------------------------------------------------
----------0---------------------------------------
--------------------------------------------------
--------------------------------------------------
-0--------0-----0-----0--------------0------------
--------------------------------------------------
--------------------------------------------------
------0-------------------------------------------
--------------------------------------------------
--------------------------------------------------
--------------------------------------------------
--------------------------------------------------
----0---------------------0-----------------------
--------------------------------------------------
--------------------------------------------------
--------------------------------------------------
--------0-----------------------------------------
-----------0------------------------------------0-
--------------------------------------------------
--------------------------------------0-----------
--------------------------------------------------
----------------------------------------0---------
--------------------------------------------------
-----------0--------------------------------------
--------------------------------------------------
--------------------------------------0--------0--

Generation = 1, Population = 118.
--------------------------------------------------
--------------------------------------------------
--------------------------------------------------
---------------------------0----------------------
--------------------------0-0---------------------
---------------------------0----------------------
--------------------------------------------------
-------------------------0------------------------
------------0-----------0-0-----------------------
-----------0-0-----------0------------------------
------------00------------0-----------------------
------------010----------0-0----------------------
------------010-----------0-----------------------
-------------0------------------------------------
-----0--------------------------------------------
----0-0------0---------0--------------------------
-----0------0-0-------0-0-------------------------
-------------0---------0--------------------------
---------------0----------------------------------
--------------0-0-------------------------------0-
--0------------0-------------------------------0-0
-0-0-------------------0------------------------0-
--0-------------------0-0-------------------------
-----------------------0--------------------------
----------0---------------------------------------
---------0-0--------------------------------------
----------0---------------------------------------
-0--------0-----0-----0--------------0------------
0-0------0-0---0-0---0-0------------0-0-----------
-0--------0-----0-----0--------------0------------
------0-------------------------------------------
-----0-0------------------------------------------
------0-------------------------------------------
--------------------------------------------------
--------------------------------------------------
----0---------------------0-----------------------
---0-0-------------------0-0----------------------
----0---------------------0-----------------------
--------------------------------------------------
--------0-----------------------------------------
-------0-0-0------------------------------------0-
--------0-0-0----------------------------------0-0
-----------0--------------------------0---------0-
-------------------------------------0-0----------
--------------------------------------0-0---------
---------------------------------------0-0--------
-----------0----------------------------0---------
----------0-0-------------------------------------
-----------0--------------------------0--------0--
-------------------------------------0-0------0-0-

Generation = 2, Population = 111.
--------------------------------------------------
--------------------------------------------------
---------------------------0----------------------
--------------------------------------------------
-------------------------0---0--------------------
--------------------------------------------------
-------------------------0-0----------------------
------------0-------------------------------------
-----------------------0---0----------------------
----------0--10-----------0-----------------------
-------------1-----------0------------------------
-----------01--0--------0---0---------------------
-----------0---0----------------------------------
-----0-------1------------0-----------------------
-----------------------0--------------------------
---0---0------------------------------------------
-----------0---0-----0---0------------------------
-----0---------0----------------------------------
-------------0---------0------------------------0-
--0----------0---0--------------------------------
-----------------------0----------------------0---
0---0----------0----------------------------------
---------------------0---0----------------------0-
--0-------0---------------------------------------
-----------------------0--------------------------
--------0---0-------------------------------------
-0--------1-----0-----0--------------0------------
----------1---------------------------------------
---0----0---0-0---0-0---0----------0---0----------
------0-------------------------------------------
-0--------0-----0-----0--------------0------------
----0---0-----------------------------------------
--------------------------------------------------
------0-------------------------------------------
----0---------------------0-----------------------
--------------------------------------------------
--0---0-----------------0---0---------------------
--------------------------------------------------
----0---0-----------------0-----------------------
-----------0------------------------------------0-
------0---0---------------------------------------
---------0---0------------------------0-------0---
--------0-----------------------------------------
-----------0------------------------0-----------0-
--------------------------------------------------
-----------0------------------------------0-------
--------------------------------------------------
---------0---0------------------------0-0------0--
--------------------------------------------------
-----------0------------------------0-0-0----0-0-0

Generation = 3, Population = 369.
--------------------------------------------------
---------------------------0----------------------
--------------------------0-0---------------------
-------------------------0-0-0--------------------
------------------------0-0-0-0-------------------
---------------------------0-0--------------------
------------0-----------0---0---------------------
-----------0-0---------0-0------------------------
----------0-000-------0-0---0---------------------
---------0-00-10-------0--------------------------
----------00-*-0------------0---------------------
----------0-*-010------0---0-0--------------------
-----0----01-1010-------0-0-0---------------------
----0-0----00-00-------0-0-0----------------------
---0-0-0-----0--------0-0-0-----------------------
--0-0-0-0--0---0-----0-0-0------------------------
---0-0-0--0-0-010---0-0-0-0-----------------------
----0-0----0-0010----0-0-0----------------------0-
--0--0------0100-0----0-0----------------------0-0
-0-0--------010-0-0---------------------------0-0-
0-0-0--------0-0-0----0-0--------------------0-0--
-0-0-0--------0-0----0-0-0--------------------0-0-
0-0-0-----0----0----0-0-0-0--------------------0-0
-0-0-----0-0---------0-0-0----------------------0-
--0-----0-0-0---------0-0-------------------------
-0-----0-000-0--0-----00-------------0------------
0-0-----00*00--0-0---0-0------------0-0-----------
-0-0----00*00-0-0-0-0-0-0----------0-0-0----------
--0-0-00-000---0-0---0-0-0--------0-0-0-0---------
-0-0-0-00-0-0-0-0-0-0-0-0----------0-0-0----------
0-0-0-0-00-0---0-0---0-0------------0-0-----------
-0-0-0-0-00-----0-----0--------------0------------
----0-0-0-----------------------------------------
----00-0------------------0-----------------------
---0-00------------------0-0----------------------
--0-0-0-----------------0-0-0---------------------
-0-0-0-0---------------0-0-0-0--------------------
--0-0-0-0---------------0-0-0---------------------
---0-0-0-0-0-------------0-0--------------------0-
----0-0-0---0-------------0--------------------0-0
-----0-0-----0------------------------0-------0-0-
------0-----0-0----------------------0-0-----0-0--
-------0---0-0----------------------0-0-------0-0-
--------0-0-0----------------------0-0---------0-0
------------------------------------0-----0-----0-
----------0-0----------------------------0-0------
---------0-0-0------------------------0-0-0----0--
--------0-0-0-0----------------------0---0----0-0-
---------0-0-0----------------------0--------0---0
----------0-0----------------------0-----0--0-----

Generation = 4, Population = 114.
---------------------------0----------------------
--------------------------------------------------
--------------------------------------------------
--------------------------------------------------
-----------------------0-0-----0------------------
------------0-------------------------------------
--------------------------------------------------
-------------1------------0-----------------------
-------------1-------0-----0-0--------------------
--------0-------0---------------------------------
-------------.------------------------------------
-----0---0--.----0----0-------0-------------------
---------0---*---0-----0-0------------------------
------------1-------------------------------------
--------------------------------------------------
-0-------0---0-1----------0-----------------------
---------0---0---0-0-------0--------------------0-
--0-----------------------------------------------
-----------------------0--------------------------
-----0-----0-------0------------------------------
-------------1---------0--------------------0---0-
0-----0---0---------------------------------------
-------------------0-------0----------------------
---------------0----------------------------------
-0--------1-----0-----1--------------0----------0-
--0---0-------0-----------------------------------
----------.------------1--------------------------
------0---.---------------------------------------
-0---01-----0-0---0-0-----0------0-------0--------
----------1---------------------------------------
--------------------------------------------------
--0-------1---------------------------------------
-0--1-----0-----0-----0---0----------0------------
--------------------------------------------------
--------------------------------------------------
------1-------------------------------------------
0---------------------0-------0-------------------
-----------0------------------------------------0-
--------------------------------------------------
--------------------------------------0-----------
------------0-------------0-----------------------
-------0-------0------------------------0---0---0-
--------------------------------------------------
-----------0----------------------0-------0-------
--------0-----------------------------------------
-----------0------------------------0-0-----0--00-
--------------------------------------------------
-------0-------0-------------------------------0--
--------------------------------------------------
-----------0----------------------0-----0-00-----0

Generation = 5, Population = 386.
--------------------------0-0---------------------
---------------------------0----------------------
--------------------------------------------------
-----------------------0-0-----0------------------
------------0---------0---0---0-0-----------------
-----------0-0---------0-0-----0------------------
------------00------------0-----------------------
------------0*0------0---0---0--------------------
--------0---0*0-0---0-0-------0-------------------
-------0-0---1-0-0---0-----0-0--------------------
-----0--00---.--00----0-------0-------------------
----0-0-010-.1--010--0---0---0-0------------------
-----0--010--.0-010-------0---0-------------------
---------0-0-----0-----0-0------------------------
-0-------0--00-0----------0-----------------------
0-0-----010-01--00-0-----0----------------------0-
-00-----010-01010---0-------0------------------0-0
-0-0-----0---0---0-0---0---0--------------------0-
--0--0-----0-------0--0-0-------------------------
----0-0---0-01----0-0-----------------------0---0-
0----00---000-0----0--0-0------------------0-0-0-0
-0---0-0-0-0-0-----0---0---0----------------0---0-
0-----0---0----0--0-0-----0-0---------------------
-0--------0---0----0--0----0---------0----------0-
0-----0--0-0--0--0---0-0------------0-0--------0-0
---0-0-0--0--0-00-----00-------------0----------0-
--0-------.---0-------0-0-------------------------
-0----10--.-0-0---0-0--0--0------0-------0--------
0-0-01-0--00---0-0---0---0-0----0-0-----0-0-------
-0---00--0-00-0---0-0-----0------0-------0--------
--0-----------------------------------------------
---00----0*0----0-----0---0----------0------------
0--0-0---010---0-0---0-0-0-0--------0-0-----------
-0--0-----0-----0-----0---0----------0------------
------0-------------------------------------------
0----0-0--------------0-------0-------------------
-0----0----0---------0-0-----0-0----------------0-
0---------0-0---------0-------0----------------0-0
-----------0--------------------------0---------0-
------------0-------------0----------0-0----------
-------0---0-0-0---------0-0----------0-0---0---0-
------0-0---0-0-0---------0------------0-0-0-0-0-0
-------0---0---0------------------0-----0-0-0---0-
--------0-0-0--------------------0-0-----0-0------
-------0-0------------------------0-0-0---0-0--00-
--------0-0-0----------------------0---0---0-00110
-------0---0---0--------------------0-0-----0---0-
------0-0-----0-0-----------------------------0-0-
-------0---0---0------------------0-----0-00---0-0
----------0-0--------------------0-0---0--110---0-

Generation = 6, Population = 356.
-------------------------0-0-0--------------------
--------------------------------------------------
-----------------------0-0-0---0------------------
------------0-------------------------------------
---------------------0-0-0-0-0---0----------------
----------0--10-----------0-----------------------
-------------1-------0-0-0-0-0-0------------------
--------0--01.-00-------0---0---------------------
-----------0-.-0---0---0-0-0-0-0------------------
-----00--10--*1--10---0---0---0-------------------
---------1---.---1---0-0-0-0-0--------------------
---0----1--0.--11--00---0---0---0-----------------
-------0-----.-----0-0-0-0-0----------------------
-0---0----0--100-1----0---0---0-------------------
-------------------0---0-0-0--------------------0-
--10---0----1*-1-1------0---0---------------------
-------0---------0-0-0-0-0---0----------------0---
01--00---1-0-1-1---1------0-----------------------
---------0-------0-1-0-0-0-0----------------0-----
0-00--10-01--*---0---0----------------------------
-----------1---0---1-0-0-0-0--------------0-------
0-0-01-----10--0---1------------------------------
-0--------1--0--00---000-0---0-------0------0-----
0-0-------1--01--0--------------------------------
---0----0---0-1---000--10--0-------0---0------0---
0-----0-0---0--11---------------------------------
-----00---.-0-1-0-0-001--00------0---0---0------0-
--0-0-*-0-.---1-----------------------------------
----1--10-1-0-0---0-0-000---0--0---0---0---0------
--0---1-0-1-1-------------------------------------
----000---0-0-0-0-0-0-0----------0---0---0--------
0---1---0-.-0-------------------------------------
--01--0-0---0-0---0-0-------0------0---0----------
--0---0---1---------------------------------------
00--0-----0-----0---------0---0------0------------
----0---0--0------------------------------------0-
0-0-----------------0---0---0---0-----------------
------0--0---0------------------------0-------0---
0-----------0---------0---0---0-------------------
-------0---0---0--------------------0-------0-----
----------0---0---------0---0---------------------
-----0---0-0-0---0----------------0-------0-------
--------0---0-------------0-----------------------
-------0-0-0-0-0----------------0-----0-----0--0--
------0---0---------------------------------------
-------0-0-0-0-0--------------------0-0-0----1-*-1
--------0-----------------------------------------
-----0---0---0---0----------------0-0-0-0-0000-01-
--------------------------------------------------
-------0-0-0-0-0----------------0-0-0-0--0-*10----

Generation = 7, Population = 744.
------------------------0-----0-------------------
-----------------------0-----0-0------------------
------------0---------0-----0-0-0-----------------
-----------0-0-------0-------0-0-0----------------
----------0-000-----0-----0---0-0-0---------------
---------0-00-10---------0-0---0-0----------------
--------0-00-*-00---0---0-0-0---0-----------------
-------0-00-*.0-10-0-0-0-0-0-0--------------------
-----00-00-1-*-1-0--0---0-0-0-0-0-----------------
----01100-1-0.*-0-1----0-0-0-0--------------------
---0-00--*-0-.00-*-0--0-0-0-0---0-----------------
--0-0-----0-.-0**-0-10-0-0-0---0-0----------------
-0-0-00---01-.0-01010-0-0-0---0-0-----------------
0-0-0-00-0-01*-1--0----0-0-0-0-0----------------0-
-000-0-0--0-0-0---0-0---0-0---0----------------0-0
-0*10-010--0*.---*0--0-0-0--------------------0-0-
0000000101-00---01-1----0-----0--------------0-0--
1*0011000*------0-0-0----0---0--------------0-0---
-00000000--0---001-*-1----0-0--------------0-0----
--1100*1--*-0.00010-0-0-------------------0-0-----
---00000-0-*-101000*-1------0------------0-0------
-0--1*0-----1-01-00*0-0----0-0-------0----0-0-----
0-0-00---0*--1--1-0001-1--0-0-0-----0-0----0-0----
-0------00*0---0-1-0000-00-0-0-----0-0-0----0-0---
----0-00101010*-0-1-101*100-0-----0-0-0-0----0-0--
-0-0--1-10-0-00*-0-0-0000000-----0-0-0-0-0----0-0-
0-0--110--.01-*01---1-*10110----0-0-0-0-0-0----0-0
-0--10*010.--0-00----0-0000-0--0-0-0-0-0-0-0----0-
---0*11*1-*-1-10-0----1-10-0-00-0-0-0-0-0-0-0-----
-0-0--*01----0--0------00---0--0-0-0-0-0-0-0------
0-00---0-01------------0--------0-0-0-0-0-0-------
-00-*--010.0-0--0-----0-----0----0-0-0-0-0--------
00-*-01-10101--0-0---0-----0-0----0-0-0-0---------
0-1-001000*00-0-0-0-0-----0-0-0----0-0-0----------
11-0100-001----0-0-------0-0-0-0----0-0---------0-
-00010-0-0--0---0---0---0-0-0-0-0----0---------0-0
---00-0-00-0-0-----0-0-0-0-0-0-0-0----0-------0-0-
--0--0-00-0---0-----0-0-0-0-0-0-0----0-0-----0-0--
-0----00-0-----0-----0-0-0-0-0-0----0-0-----0-0---
0-----0-0-------0-----0-0-0-0-0----0-0-----0-0----
-----0-0---0-----0-----0-0-0-0----0-0-----0-0-----
----0-0---0-0---0-0-----0-0-0----0-0-----0-0------
-----0---0-0-0-0-0-------0-0----0-0---0---0-0--0--
--------0-0-0---0---------0----0-0---0-0---0-00-0-
-----0-0-0-0--------------------0---0---0---00---0
--------0-0-----0------------------0-----0--0--.--
-----0---0-0---0-0----------------0-------000---00
----0-0---0-0-0-0-0--------------0--------1--1-1*0
-----0-0---0---0-0--------------0-------000----00-
------0---------0--------------0-------00--.-10---

Generation = 8, Population = 145.
-------------------------0------------------------
------------0-------------------------------------
---------------------------0----------------------
-------------1------------0-----------------------
-------------1-----0---------------0--------------
--------------------------------------------------
-------------.------------------------------------
-----0------..------------------------------------
-------------.---1-----0---------0----------------
----1--------..-----0-----------------------------
---------*---.1--.--------------------------------
-----0----10.11..-1--1------------0---------------
-----1-------.1------0-----0--------------------0-
--1---------*.------------------------------------
-------------0---------0--------------------------
-1.---------..0--.--------------------------------
-----1-------1-1-----0---0-----0------------------
-.-------.0-0-------------------------------------
-------------------.------------------------------
------.*--*--.---------0--0-----------------------
-0--------0*-*--1--.--0--------------0--0---0-----
----*.----0--------.------------------------------
----------.----0---------------0------------------
-----00---.---------------------------------------
----------*--1.--------.--------------------------
--0-------0----.--0-------------------------------
--------0-.-*-.-------.---------------------------
------.-*1*00--1----------------------------------
--0-.*-.*0.---*---0-----*-0--11--------------0--0-
--0---.-------------------------------------------
----------*------------1--------------------------
0---*---*1.10-0-----------------------------------
---.----*-*---------------------------------------
----------.1------------------------------------0-
--------------------------------------------------
--------------------------------------0-----------
-00-------0-0---0-0---0-----------0--0------------
----------------------------------------0---------
--------------------------------------------------
------1----0--------------------------------------
0---------------0---------------------------------
---0---------------0------------------0-0---0--0--
--------------------------------------------------
------------------------------0-------0-------10--
----0---------------------0-----------------------
-----------0--------------------0--------------.1-
--------------------------------------------------
---0---------------0--------------------0-------.-
--------0----------------------------------0------
-----------0------------------0-------01--1.1*1-0-

Generation = 9, Population = 444.
------------0-----------0-0-----------------------
-----------0-0-----------0-0----------------------
------------00--------------0---------------------
------------0*0----0-----0---------0--------------
------------0*0---0-0-----0-------0-0-------------
-------------1-----0---------------0--------------
-----0-------.------------------------------------
----0-0-----..---0-----0---------0----------------
----00-------.--0-0-0-0-0-------0-0---------------
---0-1---1---..--1-0-0-0---------0----------------
----00--0.-0-**0-.0-00------------0---------------
----010---*1.***.1-01*0----0-----0-0------------0-
--0-0*0---010.*1--0-010---0-0-----0------------0-0
-0-0-0-----0.*0------0-0---0--------------------0-
-00-------------------0-0-------------------------
0-.--0------.*---.---0-0-0-----0------------------
-0--0-0---0---0-0---0-0-0-0---0-0-----------------
-.---1---.-----1-----0---0-----0------------------
-------0----0------.---0--0-----------------------
-0----..00*--.--0-------00-0---------0--0---0-----
0-0-0--0-01*-.01-0-.-1----0---------0-00-0-0-0----
-0-0..---01--0-10--.--0--------0-----0--0---0-----
----000---.---0-1-------------0-0-----------------
----0110--.--0-0---------------0------------------
--0--00--0.01-.---1----.--------------------------
-0-0----101000-.-0-0------------------------------
--0----01-.-*0.0--0---.---------------------------
--0--0.0.**--0--0-0-----0-0--00--------------0--0-
-010..1.*-.010.--0-0---0.--00**0------------0-00-0
-010-0.-101---0---0----00-0--00--------------0--0-
0-0-0---0-*-0-0-------0-0-------------------------
-0-0.0-0**.*1--0-------0--------------------------
0--.1--0*0*01-0---------------------------------0-
--------0-.-0----------------------------------0-0
-----------0--------------------------0---------0-
-00-------0-0---0-0---0-----------0----0----------
0110-----0---0-0---0-0-0---------0-00---0---------
-00-------0-0---0-0---0-----------0--0-0-0--------
------0----0----------------------------0---------
0----0-0--0-0---0---------------------------------
-0-0--0----0---0-0-0------------------0-0---0--0--
0-0-0-----------0-0-0----------------0---0-0-00-0-
---0---------------0----------0---------0---0-0---
----0---------------------0--0-0-----0-0-----0*10-
---0-0-----0-------------0-0--0-0-----0-------000-
----0-----0-0-------------0----0-0-------------.-1
---0-------0-------0------------0-------0-------0-
--0-0---0---------0-0------------------0-0-0----.-
---0---0-0-0-------0----------0-------000----00-0-
--------0-0-0----------------0-0-----01*00-****--0

Generation = 10, Population = 400.
-----------------------0-0------------------------
----------0--10-----------0-----------------------
-------------1-----0---------0-----0--------------
-----------01.-0--------0---0---------------------
-----------0-.-0-0---0-----0-----0---0------------
-----0-------*------------0-----------------------
-------------.---0-0---0---------0-0--------------
---01--0----..------0-----------------------------
---------0---.-1---0-0---0-----0---0--------------
--0---1---10-.*0-----10-----------0---------------
-----1-0-*-1-*.-0*---1-0---0-----0--------------0-
--001--011.*.....--1-.-0--------0---0-------------
---0-.-0-1--1..-0--1-----0---0----------------0---
01--01-----1.*----0--1------------0---------------
--1--------0--0------0-----0---0----------------0-
-1*-------0-..--0.--------------------------------
--00---1-1-0---1-1-1---0---0-0---0----------------
-.-----0-.0-0----------0--0-----------------------
-0---00--000-1-00--.-10--0-----0-----0--0---0-----
----0-.*11.-0.0------0--11--0---------------------
---0-00-01-*0.1---0.0---0------0---0--11------0---
--0-..000---1------.---0--0-----------------------
-0---1---0.--1--*0----0------0---0---0--0---0-----
--00---100.0--1---0-------------------------------
---------1.--1*0-------.-------0------------------
0---001--1-1--0.1---0-----------------------------
--1--11--0.-.1.---1---.-0-1--00--------------0--0-
----1-.1.**-0-1--01-------------------------------
0---.*-..0.1--*-----0-11.-01-..10----------0--11--
----0-.0*-----10----------------------------------
--1--0----.01-1---0--0--100--00--------------0--0-
0-0-.---....*00-0-------------------------------0-
---.--1-.1.1*----------0--------------------------
0---0---1-.1100-----------------------0-------0---
-10-----0---0---0-0---0-----------0--0------------
-----------0------------------------0-----------0-
1--10---0-0-0---0-0-----0-------0--11--0----------
------0----0------------------------------0-------
000-------0-0-----0---0-----------0--0------------
---00---00---0-----0------------------0-----0--0--
0-0-----------0---0-------------------------------
-0---00----0-----0---0--------0-----0---0----1-0-0
0---0-----------0---------0-----------------------
---0-------0-------0--------0-------0-0------1.*-0
--0---0-----------------0---0------------------1--
---0-----0---0-----0--------------0---0-0-----0.1-
----0---0-----------------0----------------0---0--
-0---0-----------0---0--------0-0------1----010-.-
------0---0------------------------------0--------
---0-----0-0-0-----0--------0-0-0---01*.11-.*.*0--

*** Life<Cell> 5x5 ***

Generation = 0, Population = 4.
0----
-0---
--0--
---0-
-----

Generation = 1, Population = 2.
-----
-----
-----
----0
---0-

Generation = 2, Population = 2.
-----
-----
----0
-----
--0--

Generation = 3, Population = 6.
-----
----0
---0-
--0-0
-0-0-

*** Life<Cell> 3x3 ***

Generation = 0, Population = 1.
0--
---
---

Generation = 5, Population = 0.
---
---
---

*** Life<Cell> 50x50 ***

Generation = 0, Population = 15.
--------------------------------------------------
--------------------------------------------------
--------------------------------------------------
----------------------------0---------------------
--------------------------------------------------
--------------------------------------------------
---------------------------------------------0----
--------------------------------------------------
--------------------------------------------------
--------------------------------------------------
--------------------------------------------------
--------------------------------------0-----------
--------------------------------------------------
--------------------------------------------------
--------------------------------------------------
--------------------------------------------------
------------------0-------------------------------
--------------------------------------------------
--------------------------------------------------
--------------------------------------------------
--------------------------------------------------
--------------------------------------------------
--------------------------------------------------
--------------------------------------------------
--------------------------------------------------
------------------------------0-------------------
--------------------------------------------------
--------------------------------------------------
--0-----------------------------------------------
--------------------------------------------------
--------------------------------------------------
---------------0----------------------------------
--------------------------------------------------
--------------------------------------------------
--------------------------------------------------
--------------------------------------------------
---0----------------------------------------------
--------------------------------------------------
--------------------------------------------------
-----------------------------------------------0--
--------------------------------------------------
--------------------------------------------------
--------0-----------------------------------------
-----------------------------------------0--------
--0-----------------------------------------------
--------------------------------------------------
-----------------------------------0--------------
------------------------0-------------------------
------------0-------------------------------------
--------------------------------------------------

Generation = 1, Population = 60.
--------------------------------------------------
--------------------------------------------------
----------------------------0---------------------
---------------------------0-0--------------------
----------------------------0---------------------
---------------------------------------------0----
--------------------------------------------0-0---
---------------------------------------------0----
--------------------------------------------------
--------------------------------------------------
--------------------------------------0-----------
-------------------------------------0-0----------
--------------------------------------0-----------
--------------------------------------------------
--------------------------------------------------
------------------0-------------------------------
-----------------0-0------------------------------
------------------0-------------------------------
--------------------------------------------------
--------------------------------------------------
--------------------------------------------------
--------------------------------------------------
--------------------------------------------------
--------------------------------------------------
------------------------------0-------------------
-----------------------------0-0------------------
------------------------------0-------------------
--0-----------------------------------------------
-0-0----------------------------------------------
--0-----------------------------------------------
---------------0----------------------------------
--------------0-0---------------------------------
---------------0----------------------------------
--------------------------------------------------
--------------------------------------------------
---0----------------------------------------------
--0-0---------------------------------------------
---0----------------------------------------------
-----------------------------------------------0--
----------------------------------------------0-0-
-----------------------------------------------0--
--------0-----------------------------------------
-------0-0-------------------------------0--------
--0-----0-------------------------------0-0-------
-0-0-------------------------------------0--------
--0--------------------------------0--------------
------------------------0---------0-0-------------
------------0----------0-0---------0--------------
-----------0-0----------0-------------------------
------------0-------------------------------------

Generation = 2, Population = 59.
--------------------------------------------------
----------------------------0---------------------
--------------------------------------------------
--------------------------0---0-------------------
---------------------------------------------0----
----------------------------0---------------------
-------------------------------------------0---0--
--------------------------------------------------
---------------------------------------------0----
--------------------------------------0-----------
--------------------------------------------------
------------------------------------0---0---------
--------------------------------------------------
--------------------------------------0-----------
------------------0-------------------------------
--------------------------------------------------
----------------0---0-----------------------------
--------------------------------------------------
------------------0-------------------------------
--------------------------------------------------
--------------------------------------------------
--------------------------------------------------
--------------------------------------------------
------------------------------0-------------------
--------------------------------------------------
----------------------------0---0-----------------
--0-----------------------------------------------
------------------------------0-------------------
0---0---------------------------------------------
---------------0----------------------------------
--0-----------------------------------------------
-------------0---0--------------------------------
--------------------------------------------------
---------------0----------------------------------
---0----------------------------------------------
--------------------------------------------------
-0---0--------------------------------------------
-----------------------------------------------0--
---0----------------------------------------------
---------------------------------------------0---0
--------0-----------------------------------------
-----------------------------------------0-----0--
--0---0---0---------------------------------------
---------------------------------------0---0------
0---0---0--------------------------0--------------
------------------------0----------------0--------
--0---------0--------------------0---0------------
----------------------0---0-----------------------
----------0---0--------------------0--------------
------------------------0-------------------------

Generation = 3, Population = 232.
----------------------------0---------------------
---------------------------0-0--------------------
--------------------------0-0-0-------------------
-------------------------0-0-0-0-------------0----
--------------------------0-0-0-------------0-0---
---------------------------0-0-------------0-0-0--
----------------------------0-------------0-0-0-0-
-------------------------------------------0-0-0--
--------------------------------------0-----0-0---
-------------------------------------0-0-----0----
------------------------------------0-0-0---------
-----------------------------------0-0-0-0--------
------------------------------------0-0-0---------
------------------0------------------0-0----------
-----------------0-0------------------0-----------
----------------0-0-0-----------------------------
---------------0-0-0-0----------------------------
----------------0-0-0-----------------------------
-----------------0-0------------------------------
------------------0-------------------------------
--------------------------------------------------
--------------------------------------------------
------------------------------0-------------------
-----------------------------0-0------------------
----------------------------0-0-0-----------------
--0------------------------0-0-0-0----------------
-0-0------------------------0-0-0-----------------
0-0-0------------------------0-0------------------
-0-0-0---------0--------------0-------------------
0-0-0---------0-0---------------------------------
-0-0---------0-0-0--------------------------------
--0---------0-0-0-0-------------------------------
-------------0-0-0--------------------------------
---0----------0-0---------------------------------
--0-0----------0----------------------------------
-0-0-0--------------------------------------------
0-0-0-0----------------------------------------0--
-0-0-0----------------------------------------0-0-
--0-0----------------------------------------0-0-0
---0----0-----------------------------------0-0-0-
-------0-0-------------------------------0---0-0-0
--0---0-0-0-----------------------------0-0---0-0-
-0-0-0-0-0-0---------------------------0-0-0---0--
0-0-0-0-0-0------------------------0--0-0-0-0-----
-0-0-0-0-0--------------0---------0-0--0-0-0------
0-0-0---0---0----------0-0-------0-0-0--0-0-------
-0-0-------0-0--------0-0-0-----0-0-0-0--0--------
--0-------0-0-0------0-0-0-0-----0-0-0------------
---------0-0-0-0------0-0-0-------0-0-------------
----------0---0--------0-0---------0--------------

Generation = 4, Population = 57.
--------------------------------------------------
--------------------------------------------------
---------------------------------------------0----
------------------------0-------0-----------------
--------------------------------------------------
--------------------------------------------------
-----------------------------------------0-------0
----------------------------0---------0-----------
--------------------------------------------------
--------------------------------------------------
---------------------------------------------0----
----------------------------------0-------0-------
------------------0-------------------------------
--------------------------------------------------
--------------------------------------------------
--------------------------------------0-----------
--------------0-------0---------------------------
--------------------------------------------------
--------------------------------------------------
--------------------------------------------------
------------------0-------------------------------
------------------------------0-------------------
--------------------------------------------------
--------------------------------------------------
--0-----------------------------------------------
--------------------------0-------0---------------
--------------------------------------------------
---------------0----------------------------------
0-----0-------------------------------------------
------------------------------0-------------------
--------------------------------------------------
-----------0-------0------------------------------
--00----------------------------------------------
--------------------------------------------------
--------------------------------------------------
---------------0-------------------------------0--
-------0------------------------------------------
--------------------------------------------------
--------0-----------------------------------------
-----------------------------------------0-0-----0
--00----------------------------------------------
--------------------------------------------------
----0-------0----------------------0--------------
------------------------0------------0-------0-0--
0-----0-----0-------------------------------------
--------------------------------------------------
--------0----------------------0-------0----------
--------------------0-------0------------0--------
--0-----0---0---0---------------------------------
------------------------0-------------------------

Generation = 5, Population = 215.
--------------------------------------------------
---------------------------------------------0----
------------------------0-------0-----------0-0---
-----------------------0-0-----0-0-----------0----
------------------------0-------0-----------------
-----------------------------------------0-------0
----------------------------0---------0-0-0-----0-
---------------------------0-0-------0-0-0-------0
----------------------------0---------0-----------
---------------------------------------------0----
----------------------------------0-------0-0-0---
------------------0--------------0-0-----0-0-0----
-----------------0-0--------------0-------0-------
------------------0-------------------------------
--------------------------------------0-----------
--------------0-------0--------------0-0----------
-------------0-0-----0-0--------------0-----------
--------------0-------0---------------------------
--------------------------------------------------
------------------0-------------------------------
-----------------0-0----------0-------------------
------------------0----------0-0------------------
------------------------------0-------------------
--0-----------------------------------------------
-0-0----------------------0-------0---------------
--0----------------------0-0-----0-0--------------
---------------0----------0-------0---------------
0-----0-------0-0---------------------------------
-0---0-0-------0--------------0-------------------
0-----0----------------------0-0------------------
-----------0-------0----------0-------------------
--00------0-0-----0-0-----------------------------
-0110------0-------0------------------------------
--00----------------------------------------------
---------------0-------------------------------0--
-------0------0-0-----------------------------0-0-
------0-0------0-------------------------------0--
-------00-----------------------------------------
-------0-0-------------------------------0-0-----0
--00----0-------------------------------0---0---0-
-0110------------------------------------0-0-----0
--000-------0----------------------0--------------
---0-0-----0-0----------0---------0-00-------0-0--
0---0-0----------------0-0---------00-0-----0---0-
-0---0-0---0-0----------0------------0-------0-0--
0-----0-0---0------------------0-------0----------
-------0-0----------0-------0-0-0-----0-00--------
--0---------0---0--0-0-----0-0-0-------00-0-------
-0-0---0-0-0-0-0-0--0---0---0------------0--------
--0-----0---0---0------0-0------------------------

Generation = 6, Population = 206.
---------------------------------------------0----
------------------------0-------0-----------------
-------------------------------------------0---0--
----------------------0---0---0---0---------------
-----------------------------------------0---0---0
------------------------0---0---0-----0-----------
---------------------------------------0---0---0-0
--------------------------0---0-----0---0---------
-----------------------------------------0---0---0
----------------------------0-----0---0---0-------
------------------0------------------------0---0--
--------------------------------0---0---0---0-----
----------------0---0------------------------0----
----------------------------------0---0---0-------
--------------0---0---0---------------------------
------------------------------------0---0---------
------------0---0---0---0-------------------------
--------------------------------------0-----------
--------------0---0---0---------------------------
------------------------------0-------------------
----------------0---0-----------------------------
----------------------------0---0-----------------
--0---------------0-------------------------------
--------------------------0---0---0---------------
0---0---------------------------------------------
---------------0--------0---0---0---0-------------
0-0---0-------------------------------------------
-------------0---0--------0---0---0---------------
0-0-0---0-----------------------------------------
-----------0---0---0--------0---0-----------------
0-00--0-------------------------------------------
---------0---0---0---0--------0-------------------
01--10--------------------------------------------
-----------0---0---0---------------------------0--
--00---0------------------------------------------
-------------0---0---------------------------0---0
-----0--10----------------------------------------
---------------0-------------------------0-0---0-0
--00--01--0---------------------------------------
---------------------------------------0-0-0-0-0-0
01---0--0---0----------------------0--------------
------------------------0------------0---0-0-0-0-0
0--1------0-0-0------------------0---1------------
----------------------0---0--------1---0---0-0-0-0
0-0-------0-0-0----------------0---0---0----------
--------------------0---0---0--------0---0---0-0--
0-0-----0-0-----0------------0---0---0---1--------
------------------0---0-0-0---0--------1---0------
0---0-0-0---------0------------0-------0----------
--------------------0-0-0-0-0------------0--------

*** Life<Cell> 6x6 ***

Generation = 0, Population = 4.
0----0
------
------
------
------
0----0

Generation = 1, Population = 8.
-0--0-
0----0
------
------
0----0
-0--0-

Generation = 2, Population = 8.
--00--
------
0----0
0----0
------
--00--

Generation = 3, Population = 24.
-0110-
0-00-0
10--01
10--01
0-00-0
-0110-

Generation = 4, Population = 16.
-1**1-
1----1
*----*
*----*
1----1
-1**1-

*** Life<Cell> 4x4 ***

Generation = 0, Population = 16.
0000
0000
0000
0000

Generation = 5, Population = 8.
-**-
*--*
*--*
-**-

Generation = 10, Population = 8.
-**-
*--*
*--*
-**-

*** Life<Cell> 6x6 ***

Generation = 0, Population = 16.
-0000-
0----0
0----0
0----0
0----0
-0000-

Generation = 1, Population = 16.
-1--1-
1-00-1
-0--0-
-0--0-
1-00-1
-1--1-

Generation = 2, Population = 8.
------
--11--
-1--1-
-1--1-
--11--
------

Generation = 3, Population = 16.
--00--
--**--
0*--*0
0*--*0
--**--
--00--

Generation = 4, Population = 8.
-1--1-
1-..-1
-.--.-
-.--.-
1-..-1
-1--1-

*** Life<Cell> 5x5 ***

Generation = 0, Population = 9.
-----
-000-
-000-
-000-
-----

Generation = 1, Population = 16.
-000-
0-1-0
01-10
0-1-0
-000-

Generation = 2, Population = 16.
-111-
1-*-1
1*-*1
1-*-1
-111-

Generation = 3, Population = 12.
-***-
*-.-*
*.-.*
*-.-*
-***-

Generation = 4, Population = 16.
-***-
*-*-*
**-**
*-*-*
-***-

*** Life<Cell> 5x5 ***

Generation = 0, Population = 13.
0-0-0
-0-0-
0-0-0
-0-0-
0-0-0

Generation = 1, Population = 8.
-0-0-
0---0
-----
0---0
-0-0-

Generation = 2, Population = 0.
-----
-----
-----
-----
-----

*** Life<Cell> 2x2 ***

Generation = 0, Population = 1.
0-
--

Generation = 1, Population = 2.
-0
0-
