*** Life<ConwayCell> 4x4 ***

Generation = 0, Population = 4.
....
.**.
.**.
....

Generation = 1, Population = 4.
....
.**.
.**.
....

*** Life<ConwayCell> 5x5 ***

Generation = 0, Population = 3.
.....
.....
.***.
.....
.....

Generation = 1, Population = 3.
.....
..*..
..*..
..*..
.....

Generation = 2, Population = 3.
.....
.....
.***.
.....
.....

*** Life<ConwayCell> 5x5 ***

Generation = 0, Population = 4.
.....
..*..
.*.*.
..*..
.....

Generation = 1, Population = 4.
.....
..*..
.*.*.
..*..
.....

*** Life<ConwayCell> 5x6 ***

Generation = 0, Population = 6.
......
..**..
.*..*.
..**..
......

Generation = 1, Population = 6.
......
..**..
.*..*.
..**..
......

*** Life<ConwayCell> 6x6 ***

Generation = 0, Population = 5.
......
..*...
...*..
.***..
......
......

Generation = 1, Population = 5.
......
......
.*.*..
..**..
..*...
......

Generation = 2, Population = 5.
......
......
...*..
.*.*..
..**..
......

Generation = 3, Population = 5.
......
......
..*...
...**.
..**..
......

Generation = 4, Population = 5.
......
......
...*..
....*.
..***.
......

*** Life<ConwayCell> 6x6 ***

Generation = 0, Population = 6.
......
......
..***.
.***..
......
......

Generation = 1, Population = 6.
......
...*..
.*..*.
.*..*.
..*...
......

Generation = 2, Population = 6.
......
......
..***.
.***..
......
......

*** Life<ConwayCell> 17x17 ***

Generation = 0, Population = 48.
.................
.................
....***...***....
.................
..*....*.*....*..
..*....*.*....*..
..*....*.*....*..
....***...***....
.................
....***...***....
..*....*.*....*..
..*....*.*....*..
..*....*.*....*..
.................
....***...***....
.................
.................

Generation = 1, Population = 56.
.................
.....*.....*.....
.....*.....*.....
.....**...**.....
.................
.***..**.**..***.
...*.*.*.*.*.*...
.....**...**.....
.................
.....**...**.....
...*.*.*.*.*.*...
.***..**.**..***.
.................
.....**...**.....
.....*.....*.....
.....*.....*.....
.................

Generation = 2, Population = 72.
.................
.................
....**.....**....
.....**...**.....
..*..*.*.*.*..*..
..***.**.**.***..
...*.*.*.*.*.*...
....***...***....
.................
....***...***....
...*.*.*.*.*.*...
..***.**.**.***..
..*..*.*.*.*..*..
.....**...**.....
....**.....**....
.................
.................

Generation = 3, Population = 48.
.................
.................
....***...***....
.................
..*....*.*....*..
..*....*.*....*..
..*....*.*....*..
....***...***....
.................
....***...***....
..*....*.*....*..
..*....*.*....*..
..*....*.*....*..
.................
....***...***....
.................
.................

*** Life<ConwayCell> 18x11 ***

Generation = 0, Population = 20.
...........
.....*.....
.....*.....
....***....
...........
...........
....***....
.....*.....
.....*.....
.....*.....
.....*.....
....***....
...........
...........
....***....
.....*.....
.....*.....
...........

Generation = 1, Population = 22.
...........
...........
...........
....***....
.....*.....
.....*.....
....***....
...........
....***....
....***....
...........
....***....
.....*.....
.....*.....
....***....
...........
...........
...........

Generation = 2, Population = 18.
...........
...........
.....*.....
....***....
...........
...........
....***....
...........
....*.*....
....*.*....
...........
....***....
...........
...........
....***....
.....*.....
...........
...........

Generation = 3, Population = 22.
...........
...........
....***....
....***....
.....*.....
.....*.....
.....*.....
....*.*....
...........
...........
....*.*....
.....*.....
.....*.....
.....*.....
....***....
....***....
...........
...........

Generation = 4, Population = 20.
...........
.....*.....
....*.*....
...........
...........
....***....
....***....
.....*.....
...........
...........
.....*.....
....***....
....***....
...........
...........
....*.*....
.....*.....
...........

Generation = 5, Population = 16.
...........
.....*.....
.....*.....
...........
.....*.....
....*.*....
...........
....***....
...........
...........
....***....
...........
....*.*....
.....*.....
...........
.....*.....
.....*.....
...........

Generation = 6, Population = 12.
...........
...........
...........
...........
.....*.....
.....*.....
....*.*....
.....*.....
.....*.....
.....*.....
.....*.....
....*.*....
.....*.....
.....*.....
...........
...........
...........
...........

Generation = 7, Population = 22.
...........
...........
...........
...........
...........
....***....
....*.*....
....***....
....***....
....***....
....***....
....*.*....
....***....
...........
...........
...........
...........
...........

Generation = 8, Population = 18.
...........
...........
...........
...........
.....*.....
....*.*....
...*...*...
...*...*...
...*...*...
...*...*...
...*...*...
...*...*...
....*.*....
.....*.....
...........
...........
...........
...........

Generation = 9, Population = 40.
...........
...........
...........
...........
.....*.....
....***....
...**.**...
..***.***..
..***.***..
..***.***..
..***.***..
...**.**...
....***....
.....*.....
...........
...........
...........
...........

Generation = 10, Population = 18.
...........
...........
...........
...........
....***....
...*...*...
..*.....*..
...........
.*.......*.
.*.......*.
...........
..*.....*..
...*...*...
....***....
...........
...........
...........
...........

Generation = 11, Population = 18.
...........
...........
...........
.....*.....
....***....
...*****...
...........
...........
...........
...........
...........
...........
...*****...
....***....
.....*.....
...........
...........
...........

Generation = 12, Population = 20.
...........
...........
...........
....***....
...*...*...
...*...*...
....***....
...........
...........
...........
...........
....***....
...*...*...
...*...*...
....***....
...........
...........
...........

Generation = 13, Population = 28.
...........
...........
.....*.....
....***....
...*.*.*...
...*.*.*...
....***....
.....*.....
...........
...........
.....*.....
....***....
...*.*.*...
...*.*.*...
....***....
.....*.....
...........
...........

Generation = 14, Population = 20.
...........
...........
....***....
...........
...*...*...
...*...*...
...........
....***....
...........
...........
....***....
...........
...*...*...
...*...*...
...........
....***....
...........
...........

Generation = 15, Population = 20.
...........
.....*.....
.....*.....
....***....
...........
...........
....***....
.....*.....
.....*.....
.....*.....
.....*.....
....***....
...........
...........
....***....
.....*.....
.....*.....
...........

*** Life<ConwayCell> 33x48 ***

Generation = 0, Population = 36.
................................................
.........................*......................
.......................*.*......................
.............**......**............**...........
............*...*....**............**...........
.**........*.....*...**.........................
.**........*...*.**....*.*......................
...........*.....*.......*......................
............*...*...............................
.............**.................................
................................................
................................................
................................................
................................................
................................................
................................................
................................................
................................................
................................................
................................................
................................................
................................................
................................................
................................................
................................................
................................................
................................................
................................................
................................................
................................................
................................................
................................................
................................................

Generation = 20, Population = 54.
................................................
...........................**...................
..........................*...*.................
..........**.............*.....*...**...........
..........**.............*...*.**..**...........
.**...*......**..........*.....*................
.*.*...*.....***..........*...*.................
..*****......**............**...................
...***....**.........*.*........................
..........**..........**........................
......................*.........................
................................................
................................................
................................................
................................................
................................................
................................................
................................................
................................................
................................................
................................................
................................................
................................................
................................................
................................................
................................................
................................................
................................................
................................................
................................................
................................................
................................................
................................................

Generation = 40, Population = 53.
................................................
........................**......................
........................**......................
...........*....*..........**......**...........
.........*.*....*..........***.....**...........
.**....**.......*..........**...................
.**....**...........**..**......................
.......**........**..*..**......................
.........*.*.....****...........................
...........*.......*............................
................................................
................................................
................................................
..........................*.*...................
...........................**...................
...........................*....................
................................................
................................................
................................................
................................................
................................................
................................................
................................................
................................................
................................................
................................................
................................................
................................................
................................................
................................................
................................................
................................................
................................................

Generation = 60, Population = 46.
................................................
.........................*......................
.......................*.*......................
.............**......**............**...........
............*...*....**............**...........
.**........*.....*...**.........................
.**........*...*.**....*.*......................
...........*.....*.......*......................
............*...*...............................
.............**.................................
........................*.......................
.........................**.....................
........................**......................
................................................
................................................
................................................
................................................
................................................
...............................*.*..............
................................**..............
................................*...............
................................................
................................................
................................................
................................................
................................................
................................................
................................................
................................................
................................................
................................................
................................................
................................................

Generation = 80, Population = 64.
................................................
...........................**...................
..........................*...*.................
..........**.............*.....*...**...........
..........**.............*...*.**..**...........
.**...*......**..........*.....*................
.*.*...*.....***..........*...*.................
..*****......**............**...................
...***....**.........*.*........................
..........**..........**........................
......................*.........................
................................................
................................................
................................................
................................................
.............................*..................
..............................**................
.............................**.................
................................................
................................................
................................................
................................................
................................................
....................................*.*.........
.....................................**.........
.....................................*..........
................................................
................................................
................................................
................................................
................................................
................................................
................................................

Generation = 100, Population = 63.
................................................
........................**......................
........................**......................
...........*....*..........**......**...........
.........*.*....*..........***.....**...........
.**....**.......*..........**...................
.**....**...........**..**......................
.......**........**..*..**......................
.........*.*.....****...........................
...........*.......*............................
................................................
................................................
................................................
..........................*.*...................
...........................**...................
...........................*....................
................................................
................................................
................................................
................................................
..................................*.............
...................................**...........
..................................**............
................................................
................................................
................................................
................................................
................................................
.........................................*.*....
..........................................**....
..........................................*.....
................................................
................................................

Generation = 120, Population = 55.
................................................
.........................*......................
.......................*.*......................
.............**......**............**...........
............*...*....**............**...........
.**........*.....*...**.........................
.**........*...*.**....*.*......................
...........*.....*.......*......................
............*...*...............................
.............**.................................
........................*.......................
.........................**.....................
........................**......................
................................................
................................................
................................................
................................................
................................................
...............................*.*..............
................................**..............
................................*...............
................................................
................................................
................................................
................................................
.......................................*........
........................................**......
.......................................**.......
................................................
................................................
................................................
.............................................**.
.............................................**.

*** Life<ConwayCell> 20x30 ***

Generation = 0, Population = 13.
..............................
..............................
..............................
..............................
..............................
..............................
..............................
..............................
..............................
..............................
..............................
...........***.*..............
...........*..................
..............**..............
............**.*..............
...........*.*.*..............
..............................
..............................
..............................
..............................

Generation = 20, Population = 35.
..............................
..............................
..............................
..............................
..............................
..............................
.........***..................
.........*..*.................
.........*.**.................
..............................
...........**.................
..............................
.......**...***...............
......*..*.......*............
.......**.......***...........
.......*.*...**....*..........
........*......*.***..........
........*........*............
..............................
..............................

Generation = 40, Population = 69.
........*.....................
.......*.*....................
.......*.*.***................
......*....****...............
.......**.....................
............*.................
........*.....**..............
.........*....*...............
...........***................
......*.......................
.....*.*.........*.*.*........
....*..*........**.*.*........
....**................*.......
....**......*......**.**......
.....***...........****.......
.....**.**.**......*..........
.......*****...*..*...........
.........*.......*............
..............................
..............................

Generation = 60, Population = 80.
.....***......................
....***.**....................
...**...**....*...............
...**...**....*...............
.....*........*...............
...***..**....................
....**........................
...*.**.......................
...*.................**.......
......**..........**..........
.....................*.**.....
................**.*...**.....
.......*........**...*.**...**
.....*.*........**.*........**
....**...**..........**.......
....**...*.*......**..........
.........*..*...........**....
..........**............**....
..............................
..............................

Generation = 80, Population = 28.
.......***....................
.......*.*....................
..............**..............
.......*......**..............
.....*..**....................
....*.*.*.....................
.....***......................
......*.......................
..............................
..............**..............
..............**..............
..............................
.....................**.......
.....................**.......
..............................
..............................
..............................
..............................
..............................
..............................

Generation = 100, Population = 15.
..............................
..............................
..............**..............
..............**..............
..............................
..............................
........***...................
..............................
..............................
..............**..............
..............**..............
..............................
.....................**.......
.....................**.......
..............................
..............................
..............................
..............................
..............................
..............................

*** Life<ConwayCell> 1x1 ***

Generation = 0, Population = 1.
*

Generation = 1, Population = 0.
.

Generation = 2, Population = 0.
.

*** Life<ConwayCell> 4x4 ***

Generation = 0, Population = 16.
****
****
****
****

Generation = 1, Population = 4.
*..*
....
....
*..*

Generation = 2, Population = 0.
....
....
....
....

*** Life<ConwayCell> 30x30 ***

Generation = 0, Population = 138.
*..*..........*.*.............
.*....**....*......*...*.....*
.........*.......*.***.*......
*...............*......*......
...............**...*.........
..............................
...*..........................
*........**.*..*....*..*...*..
....*.....*.....*...*.........
..........***.................
....*................*.......*
....*..*.....**..*.......*.*..
*..**.*..*.**.................
...*.*..*..................*..
........*...................*.
..*.................*......*..
............**....*..****.....
...*.*......*...*...*....**...
......*...........*..*........
..*.......***.....*......*....
.......**..*....*.*.*......*.*
..**.....*.*........*.*.....*.
...*....*..*.................*
.*.*...*.....**...*....*.*...*
.....*..........*.*.....*.*...
..................*...*.......
.*..................*.*..*....
.*...**.......................
........*.....*..........**...
*..*.*..........*.............

Generation = 10, Population = 86.
..............................
...............******.........
................*.***.........
................**.**.........
..........**......*...........
..........****................
.........*....................
............*..*..............
...........*.*..*.............
.......**........*............
.................*............
..............*.**............
..........**..**..............
......*....*..................
......*.....*.................
......*....***...........*....
.............*...........*....
.........................*....
............**....***.........
............***..*.**.........
...........*.*....**..........
............*........*........
............*.......*.*.......
...........***................
...........*......*..*........
..................***.........
.........................*.*..
.....*....................*...
.....*....................*...
.....*........................

Generation = 20, Population = 96.
..............................
..............................
......................*.......
.....................*.*......
..........**.........**.......
.........*..**..**............
........**.....*..............
.........*..........*.........
..........*.....**............
...........**.....*.*.........
...............*..*..*........
.............**...***.........
..............*..**...........
......*........**.............
......*.........**............
......*..........***.....*....
.................*.*.....*....
................*...**...*....
...........*.....******.......
...........*.......*.**.......
...........*....***...........
..............*****...........
...........****...............
...........***................
............*............***..
..............................
.......................*.....*
.....*.................*.....*
.....*.................*.....*
.....*...................***..

Generation = 30, Population = 105.
.........***..................
........*..*..................
......................*.......
.......*...*.........*.*......
.......*...*.........**.......
.......*......................
......**.***...**.............
......**..*...***.............
...........*.**...............
...........*..................
..............................
............*...**............
............*......*..........
......*......*......*.........
......*.......*..*............
......*...........*......*....
..................***....*....
..........**.............*....
.........*...*................
.........*****................
.........*...*................
..........**...*.*............
..........*..*.*.*........*...
...........**.**.*.......****.
........................*****.
......................***.....
......................***.***.
.....*...............*......*.
.....*................**......
.....*................**.**...

Generation = 40, Population = 63.
..............................
..............................
......................*.......
......**.............*.*......
......**.............**.......
..............................
..............................
...*..........................
....****.**...................
.....***.*....................
........**....................
..............................
............**................
......*.....**................
......*...........*...........
......*..........*.*.....*....
.................*..*....*....
..................**.....*....
..............................
..............................
..............................
.................**...........
...........*.*..*..*..........
..............*..**...........
..............*.............*.
...........*..*............*.*
..............**............**
.....*.......**...............
.....*........................
.....*........................

Generation = 50, Population = 85.
..............................
..............................
......................*.......
.....................*.*......
.....................**.......
..............................
.....*.*......................
..............................
...**..**.....................
..*.***.***...................
...**.....*...................
.....***.**...................
......*.*...**................
......*.....**................
......**..........*...........
................**.*.....*....
................*****....*....
...............**........*....
..............................
...............***............
..............*...**..........
.............*....*.**........
.............*..***..*........
...................***........
...............*............*.
.............*..*..........*.*
.............**.**..........**
.....*.........***............
.....*........................
.....*........................

Generation = 60, Population = 61.
..............................
..............................
......................*.......
.....................*.*......
.....................**.......
..............................
..............................
..............................
........**....................
........**....................
..............................
...**.........................
..*..*........................
..*..*........................
..*...*.......................
...*..*..................*....
....**...................*....
.........................*....
..............................
...................*.***......
...................*.**.*.....
..................**.....*....
..............***.....*..*....
..............*..*...*...*....
..............*....*........*.
...............*.*.*...*...*.*
................*...**......**
.....*........................
.....*........................
.....*........................

Generation = 70, Population = 64.
..............................
..............................
......................*.......
.....................*.*......
.....................**.......
..............................
..............................
..............................
....*...**....................
....***.......................
......*.**....................
.**.*...*.....................
.*.....*......................
.*.....*......................
.***..*.......................
.*.....*.................*....
*......*.................*....
.*...***.................*....
...*..........................
..............................
..............................
....................*.*..**...
............*.......*.*..**...
............*.......*.........
............................*.
....................**.....*.*
....................**......**
.....*........................
.....*.........**.............
.....*...........*............

Generation = 80, Population = 46.
..............................
..............................
......................*.......
.....................*.*......
.....................**.......
..............................
..............................
..............................
..............................
..............................
..*.....**....................
..**....**....................
..............................
..............................
..............................
.........................*....
.......*.................*....
......*.*................*....
......**......................
..............................
..............................
.......................**.....
......................*.......
..................**..*.**....
..................*****.*...*.
..................**..**...*.*
............................**
.....*........................
.....*........................
.....*........................

Generation = 90, Population = 41.
..............................
..............................
......................*.......
.....................*.*......
.....................**.......
..............................
..............................
..............................
..............................
..............................
..**....**....................
..**....**....................
..............................
..............................
..............................
.........................*....
.......*.................*....
......*.*................*....
......**......................
..............................
..............................
..............................
...........................*..
.......................*.**.*.
......................*...*..*
.......................***.*..
........................*.**.*
.....*......................*.
.....*........................
.....*........................

Generation = 100, Population = 36.
..............................
..............................
......................*.......
.....................*.*......
.....................**.......
..............................
..............................
..............................
..............................
..............................
..**....**....................
..**....**....................
..............................
..............................
..............................
.........................*....
.......*.................*....
......*.*................*....
......**......................
..............................
..............................
..........................**..
..........................**..
..............................
..............................
......................**......
......................**...**.
.....*.....................**.
.....*........................
.....*........................

*** Life<ConwayCell> 20x20 ***

Generation = 0, Population = 89.
.....*..............
.**.*.**.*.*...*...*
.....*.......*......
*............**....*
.......*..*....*....
.....*..*..........*
*....*......*..*.*..
..**.....**..*.....*
*..*.....*..........
..*.*...*...........
...........**.*.....
....**..............
....**..*.**....***.
....*........*.....*
........*........**.
..*..*..........*.*.
...*....**.*.*..**..
......***..*.....**.
...*...*..*.........
**.******....*.*...*

Generation = 10, Population = 68.
.....**.............
....*..*...**.......
.....**...*.*.......
.***.....**....*....
.*..*.....**...**...
*...*......*....*...
..*.........****....
..**..*......**.....
**..*.*.......*.....
.....*..............
....................
....................
...............**...
.................*..
...............***..
.................***
.....*...........*..
...**.**............
....*..*......**...*
.....**.......**.**.

Generation = 20, Population = 65.
.......**....*......
....**..*....*......
...**...*...*.......
...**...*...***.....
..**.*....****......
...**..*.*..........
....**..**.**.......
...*......***.......
....................
.......**...........
......**............
....................
....................
....................
....................
........**.....**...
.......*..**..*..*..
......***..*..*.*...
......*....*...*....
......*****.........

Generation = 30, Population = 48.
....................
........*...........
.......*.*.....**...
.......*.*.....**...
...............**...
....................
....................
....................
....................
....................
....................
....................
.............**.....
...........*.****...
.........**......*..
....***....*.**.*.*.
...*...*......*...**
...*....*.....*...*.
....**..*.....*.**..
......**......**....

Generation = 40, Population = 46.
....................
....................
...............**...
..............*..*..
...............**...
....................
....................
....................
....................
....................
..........**........
..........**........
.......**..*.....**.
.......*....**...**.
........**..**......
.........**.**......
...***....**.....*..
...***..........*.*.
..*...*...........*.
...***...........*..

Generation = 50, Population = 40.
....................
....................
...............**...
..............*..*..
...............**...
....................
....................
....................
........*...........
.......**.**.*......
.......*.....*......
........****.*......
.......*.........**.
......**.**......**.
......*.............
.......**.**.*......
.*.......*.*........
.**.................
.*..................
....................

Generation = 60, Population = 36.
....................
....................
...............**...
..............*..*..
...............**...
....................
..........*.........
......*..**.........
.....*...*..........
.....*.......**.....
.....*...*...**.....
......*..*..........
.......*.........**.
.................**.
......**............
......**............
.**.................
*..*................
.**.................
....................

Generation = 70, Population = 47.
....................
....................
...............**...
..............*..*..
...............**...
....................
....................
....................
.......*.***........
....***..*..*.......
....***..***........
...*.*..............
...******........**.
...*...**........**.
....**..*...........
......**............
.**.................
*..*................
.**.................
....................

Generation = 80, Population = 40.
....................
....................
...............**...
..............*..*..
...............**...
....................
.......*............
.....**.**..**......
.......*......**....
...........*..**....
....................
.........*...*......
.........*.......**.
....*.....*.*....**.
..*........*........
..*.......**........
...**.*..*..........
.......*............
.......*............
....................

Generation = 90, Population = 50.
....................
....................
...............**...
..............*..*..
......***......**...
....................
....*.....*.....*...
....*....**.....**..
....*..........*.*..
.......***..........
......*...*.........
.......*****........
........*...*...*.*.
..........*.....*.*.
...............*.*..
.....***..*.**......
.....*....*.**......
......*.............
....................
....................

Generation = 100, Population = 54.
....................
....................
...............**...
...............**...
...............**...
................**..
...........**.*.**..
.......*.*..*.....**
...**.****..*...*..*
...*..*.**....*.....
................*.*.
....*.*.............
......**............
...**.**............
...**...*.....***...
.....***............
.....***............
....................
....................
....................

Generation = 110, Population = 41.
....................
..............***...
.............*......
.................*..
...........*........
...........**...*...
.............*****..
.............**...*.
..............***..*
..................*.
....................
....................
......**............
...*....**..........
...****.**....***...
....**.***..........
....................
....................
....................
....................

Generation = 120, Population = 48.
..............***...
.............**..*..
.............*****..
................*...
....................
....................
.............*......
...........*.*......
............***.....
.......***..........
.......*..*.........
......*....*........
......**.*..*.......
....................
..***.....*..****...
....................
......**.*..*.......
......*....*........
.......*..*.........
.......***..........

Generation = 130, Population = 56.
...............*.**.
...............*...*
................**.*
.................*.*
.................**.
....................
....................
.......**...........
......***...........
......*.*...........
....................
....**.........*....
.............**.**..
.............**.*.*.
....**.......***..**
......*..........**.
......*......**.**..
.....**...**..***...
.....*....**...*....
....................

Generation = 140, Population = 81.
....................
.................*..
...............*****
...............**.**
......***......*****
.....*...*.......*..
....*.....*.........
...*...*...*........
...*..*.*...........
...*...*............
....*........*......
.....*...*.***......
......**.*.....***..
........**.....**.**
........**.....*.*.*
.......***.*.....*.*
........*.*......***
.........*.....*..*.
..........**..*****.
............****.*..

Generation = 150, Population = 52.
....................
....................
......**............
.....**.*...........
.......*.*..........
.........**.........
..........*.........
.......**..*........
.......**...***.....
.**.........***.....
..**........**......
...***.....*.*......
...........**....*..
....**.........*...*
...................*
...............*....
................*..*
..............*..***
............**...*..
............*...*...

Generation = 160, Population = 58.
......*.............
...*.**.............
...**...*...........
.....****...........
.....*..............
........*...........
......***...........
....................
....................
.........***........
.........*..**......
.........**..*......
..*........***......
.*.*................
.*..*..........***..
..**..........**.**.
.............*.*..**
............**..***.
.............*..**..
..............****..

Generation = 170, Population = 51.
........*...........
.........*..........
..........*.........
....**..............
....*...............
......*..**.........
.........*..*.......
....................
.......*..*...*.....
.......**...........
........*...*..**...
.............*.***..
..*..........*..*.*.
.*.*........*..*.**.
.*..*......**..*....
..**.....**...*.....
..........***.......
...........*...*....
...............*....
...............*....

Generation = 180, Population = 34.
....................
....................
....................
....**..............
....**..............
....................
....................
....................
...........*.*......
...........*..*.....
..........*..*......
.........**.**......
..*.................
.*.*.....***........
.*..*....*.*....***.
..**....*...........
.........*..*.......
..........*.*.......
....................
....................

Generation = 190, Population = 39.
....................
....................
....................
....**..............
....**.....***......
...........*..*.....
..........*...*.....
....................
.............***....
....................
........**...**.....
........**..........
..*.................
.*.*................
.*..*...**......***.
..**.....*..*.......
.........*..........
.............*......
..........*.*.......
...........*........

Generation = 200, Population = 44.
..........****......
..........*...**....
...........**..*....
....**.........*....
....**......***.....
.........***........
.........**.........
....................
....................
....................
........**..........
........**..........
..*.................
.*.*................
.*..*...........***.
..**................
..........**........
...........**.......
..........*.........
...........**.......

Generation = 210, Population = 48.
..............***...
.............*..*...
............**......
....**.......*......
....**.......*.*....
.............***....
.............***....
....................
....................
....................
........**..........
........**..........
..*.................
.*.*.......***......
.*..*.....*......**.
..**.....*.....*....
.........*......*...
.........*.....*....
..........*...*.....
...........***......

Generation = 220, Population = 58.
....................
....................
..............*.....
....**.......*.*....
....**......**.**...
.............*.**...
.................*..
................*...
...........**.......
............*..**...
.............***....
..............*.....
..**................
.*.**..**.**........
.*..***...*.*.*.....
..*...*...*....*....
..***......****.....
.....**.***.........
.......*............
....................

Generation = 230, Population = 49.
....................
....................
....................
....**..............
....**..............
....................
....................
............**......
.............*...***
....................
..............**....
.......***....**....
......*****..*......
...***.**.*...*.*...
..*...*..**...*.*...
..*.**...**...*.*...
...**...**.....*....
....................
....................
....................

Generation = 240, Population = 42.
....................
....................
....................
....**..............
....**..............
.............*......
............***.....
............*.*.....
....................
..........*.***.....
.........****.......
....*....*..........
...*.*...*......**..
..*..*...**...*.....
...**.......*.*.....
.............*.*....
..............*.*...
................*...
...............**...
...............*....

Generation = 250, Population = 49.
....................
.............*......
............***.....
....**.....*...*....
....**.....****.....
............*.**....
................*...
................*...
..........*.........
..........**........
....................
....*..........**...
...*.*.........***..
..*..*..***...**.*..
...**........**.....
..............**.*..
...............*.**.
.................*..
....................
....................

Generation = 260, Population = 57.
..........**.**.....
..........******....
................*...
....*.*......***....
....*.*......**.....
......*.............
.............*......
............**......
............*.......
....................
................*...
....*..........***..
...*.*.......***....
..*..*.......**.....
...**...............
...........*......*.
...........***.**..*
............*......*
.............*...**.
...............*.**.

Generation = 270, Population = 61.
.............***....
.............**.**..
............*...*.*.
...............*..*.
..........*..**.*.*.
........***....***..
.........**..**.....
..........**.*......
...........**.......
................**..
...............*..*.
....*...........**..
...*.*..............
..*..*..............
...**.....***.......
.........*...*......
.........*...*......
.........*...*....**
..........***.....**
....................

Generation = 280, Population = 52.
..............*.**..
..................*.
............*..*...*
........*...*.*.....
........**..........
.........*..*.....*.
...........**....**.
......*.*...*..**...
........*...*..*....
.............*......
.................*..
....*..........*.*..
...*.*..........*...
..*..*....***.......
...**...............
........*.....*.....
........*.....*.....
........*.....*...**
..................**
....................

Generation = 290, Population = 31.
....................
........*...........
........*...........
........*...........
....................
....................
...............***..
........*...........
........*...........
................*...
................*...
....*...........*...
...*.*..............
..*..*....***.......
...**...............
........*.....*.....
........*.....*.....
........*.....*...**
..................**
....................

*** Life<ConwayCell> 3x3 ***

Generation = 0, Population = 1.
...
.*.
...

Generation = 1, Population = 0.
...
...
...

Generation = 2, Population = 0.
...
...
...
